[2020-08-17T17:06:10.143Z] [ip]: ::ffff:127.0.0.1 - [method]: OPTIONS [url]: /api/v1/neo_firm/update_plan HTTP/1.1 [status]: 200 [response-time]: 3.810 ms [client]: Mozilla/5.0 (Windows NT 10.0; Win64; x64) AppleWebKit/537.36 (KHTML, like Gecko) Chrome/84.0.4147.125 Safari/537.36
[2020-08-17T17:06:25.261Z] [ip]: ::ffff:127.0.0.1 - [method]: OPTIONS [url]: /api/v1/neo_firm/update_plan HTTP/1.1 [status]: 200 [response-time]: 4.591 ms [client]: Mozilla/5.0 (Windows NT 10.0; Win64; x64) AppleWebKit/537.36 (KHTML, like Gecko) Chrome/84.0.4147.125 Safari/537.36
[2020-08-17T17:08:25.290Z] [ip]: ::ffff:127.0.0.1 - [method]: POST [url]: /api/v1/neo_firm/update_plan HTTP/1.1 [status]: - [response-time]: - ms [client]: Mozilla/5.0 (Windows NT 10.0; Win64; x64) AppleWebKit/537.36 (KHTML, like Gecko) Chrome/84.0.4147.125 Safari/537.36
[2020-08-17T17:10:25.297Z] [ip]: ::ffff:127.0.0.1 - [method]: POST [url]: /api/v1/neo_firm/update_plan HTTP/1.1 [status]: - [response-time]: - ms [client]: Mozilla/5.0 (Windows NT 10.0; Win64; x64) AppleWebKit/537.36 (KHTML, like Gecko) Chrome/84.0.4147.125 Safari/537.36
[2020-08-17T17:40:56.325Z] [ip]: ::ffff:127.0.0.1 - [method]: OPTIONS [url]: /api/v1/neo_firm/update_plan HTTP/1.1 [status]: 200 [response-time]: 3.722 ms [client]: Mozilla/5.0 (Windows NT 10.0; Win64; x64) AppleWebKit/537.36 (KHTML, like Gecko) Chrome/84.0.4147.125 Safari/537.36
[2020-08-17T17:41:30.205Z] [ip]: ::ffff:127.0.0.1 - [method]: POST [url]: /api/v1/neo_firm/update_plan HTTP/1.1 [status]: 200 [response-time]: 21.888 ms [client]: Mozilla/5.0 (Windows NT 10.0; Win64; x64) AppleWebKit/537.36 (KHTML, like Gecko) Chrome/84.0.4147.125 Safari/537.36
[2020-08-17T19:47:07.200Z] [ip]: ::ffff:127.0.0.1 - [method]: OPTIONS [url]: /api/v1/show/show_user HTTP/1.1 [status]: 200 [response-time]: 2.415 ms [client]: Mozilla/5.0 (Windows NT 10.0; Win64; x64) AppleWebKit/537.36 (KHTML, like Gecko) Chrome/84.0.4147.125 Safari/537.36
[2020-08-17T19:47:07.228Z] [ip]: ::ffff:127.0.0.1 - [method]: GET [url]: /api/v1/show/show_user HTTP/1.1 [status]: 304 [response-time]: 21.415 ms [client]: Mozilla/5.0 (Windows NT 10.0; Win64; x64) AppleWebKit/537.36 (KHTML, like Gecko) Chrome/84.0.4147.125 Safari/537.36
[2020-08-17T19:47:07.280Z] [ip]: ::ffff:127.0.0.1 - [method]: OPTIONS [url]: /api/v1/neo_firm/get_plant_data HTTP/1.1 [status]: 200 [response-time]: 0.609 ms [client]: Mozilla/5.0 (Windows NT 10.0; Win64; x64) AppleWebKit/537.36 (KHTML, like Gecko) Chrome/84.0.4147.125 Safari/537.36
[2020-08-17T19:47:07.296Z] [ip]: ::ffff:127.0.0.1 - [method]: GET [url]: /api/v1/neo_firm/get_plant_data HTTP/1.1 [status]: 304 [response-time]: 12.150 ms [client]: Mozilla/5.0 (Windows NT 10.0; Win64; x64) AppleWebKit/537.36 (KHTML, like Gecko) Chrome/84.0.4147.125 Safari/537.36
[2020-08-17T19:48:28.438Z] [ip]: ::ffff:127.0.0.1 - [method]: OPTIONS [url]: /api/v1/neo_firm/get_data_farmer_phase/1 HTTP/1.1 [status]: 200 [response-time]: 0.918 ms [client]: Mozilla/5.0 (Windows NT 10.0; Win64; x64) AppleWebKit/537.36 (KHTML, like Gecko) Chrome/84.0.4147.125 Safari/537.36
[2020-08-17T19:48:28.443Z] [ip]: ::ffff:127.0.0.1 - [method]: OPTIONS [url]: /api/v1/neo_firm/get_data_plan/1 HTTP/1.1 [status]: 200 [response-time]: 0.711 ms [client]: Mozilla/5.0 (Windows NT 10.0; Win64; x64) AppleWebKit/537.36 (KHTML, like Gecko) Chrome/84.0.4147.125 Safari/537.36
[2020-08-17T19:48:28.476Z] [ip]: ::ffff:127.0.0.1 - [method]: GET [url]: /api/v1/neo_firm/get_data_farmer_phase/1 HTTP/1.1 [status]: 304 [response-time]: 28.125 ms [client]: Mozilla/5.0 (Windows NT 10.0; Win64; x64) AppleWebKit/537.36 (KHTML, like Gecko) Chrome/84.0.4147.125 Safari/537.36
[2020-08-17T19:48:28.510Z] [ip]: ::ffff:127.0.0.1 - [method]: GET [url]: /api/v1/neo_firm/get_data_plan/1 HTTP/1.1 [status]: 200 [response-time]: 53.089 ms [client]: Mozilla/5.0 (Windows NT 10.0; Win64; x64) AppleWebKit/537.36 (KHTML, like Gecko) Chrome/84.0.4147.125 Safari/537.36
[2020-08-17T20:05:22.524Z] [ip]: ::ffff:127.0.0.1 - [method]: OPTIONS [url]: /api/v1/show/show_user HTTP/1.1 [status]: 200 [response-time]: 0.257 ms [client]: Mozilla/5.0 (Windows NT 10.0; Win64; x64) AppleWebKit/537.36 (KHTML, like Gecko) Chrome/84.0.4147.125 Safari/537.36
[2020-08-17T20:05:22.535Z] [ip]: ::ffff:127.0.0.1 - [method]: GET [url]: /api/v1/show/show_user HTTP/1.1 [status]: 304 [response-time]: 4.419 ms [client]: Mozilla/5.0 (Windows NT 10.0; Win64; x64) AppleWebKit/537.36 (KHTML, like Gecko) Chrome/84.0.4147.125 Safari/537.36
[2020-08-17T20:05:22.607Z] [ip]: ::ffff:127.0.0.1 - [method]: OPTIONS [url]: /api/v1/neo_firm/get_plant_data HTTP/1.1 [status]: 200 [response-time]: 0.263 ms [client]: Mozilla/5.0 (Windows NT 10.0; Win64; x64) AppleWebKit/537.36 (KHTML, like Gecko) Chrome/84.0.4147.125 Safari/537.36
[2020-08-17T20:05:22.627Z] [ip]: ::ffff:127.0.0.1 - [method]: GET [url]: /api/v1/neo_firm/get_plant_data HTTP/1.1 [status]: 304 [response-time]: 16.836 ms [client]: Mozilla/5.0 (Windows NT 10.0; Win64; x64) AppleWebKit/537.36 (KHTML, like Gecko) Chrome/84.0.4147.125 Safari/537.36
[2020-08-17T20:05:26.422Z] [ip]: ::ffff:127.0.0.1 - [method]: OPTIONS [url]: /api/v1/neo_firm/get_data_farmer_phase/1 HTTP/1.1 [status]: 200 [response-time]: 0.331 ms [client]: Mozilla/5.0 (Windows NT 10.0; Win64; x64) AppleWebKit/537.36 (KHTML, like Gecko) Chrome/84.0.4147.125 Safari/537.36
[2020-08-17T20:05:26.425Z] [ip]: ::ffff:127.0.0.1 - [method]: OPTIONS [url]: /api/v1/neo_firm/get_data_plan/1 HTTP/1.1 [status]: 200 [response-time]: 0.329 ms [client]: Mozilla/5.0 (Windows NT 10.0; Win64; x64) AppleWebKit/537.36 (KHTML, like Gecko) Chrome/84.0.4147.125 Safari/537.36
[2020-08-17T20:05:26.456Z] [ip]: ::ffff:127.0.0.1 - [method]: GET [url]: /api/v1/neo_firm/get_data_farmer_phase/1 HTTP/1.1 [status]: 304 [response-time]: 13.439 ms [client]: Mozilla/5.0 (Windows NT 10.0; Win64; x64) AppleWebKit/537.36 (KHTML, like Gecko) Chrome/84.0.4147.125 Safari/537.36
[2020-08-17T20:05:26.469Z] [ip]: ::ffff:127.0.0.1 - [method]: GET [url]: /api/v1/neo_firm/get_data_plan/1 HTTP/1.1 [status]: 304 [response-time]: 25.861 ms [client]: Mozilla/5.0 (Windows NT 10.0; Win64; x64) AppleWebKit/537.36 (KHTML, like Gecko) Chrome/84.0.4147.125 Safari/537.36
[2020-08-17T20:07:44.305Z] [ip]: ::ffff:127.0.0.1 - [method]: OPTIONS [url]: /api/v1/show/show_user HTTP/1.1 [status]: 200 [response-time]: 0.243 ms [client]: Mozilla/5.0 (Windows NT 10.0; Win64; x64) AppleWebKit/537.36 (KHTML, like Gecko) Chrome/84.0.4147.125 Safari/537.36
[2020-08-17T20:07:44.316Z] [ip]: ::ffff:127.0.0.1 - [method]: GET [url]: /api/v1/show/show_user HTTP/1.1 [status]: 304 [response-time]: 6.080 ms [client]: Mozilla/5.0 (Windows NT 10.0; Win64; x64) AppleWebKit/537.36 (KHTML, like Gecko) Chrome/84.0.4147.125 Safari/537.36
[2020-08-17T20:07:44.373Z] [ip]: ::ffff:127.0.0.1 - [method]: OPTIONS [url]: /api/v1/neo_firm/get_plant_data HTTP/1.1 [status]: 200 [response-time]: 0.489 ms [client]: Mozilla/5.0 (Windows NT 10.0; Win64; x64) AppleWebKit/537.36 (KHTML, like Gecko) Chrome/84.0.4147.125 Safari/537.36
[2020-08-17T20:07:44.403Z] [ip]: ::ffff:127.0.0.1 - [method]: GET [url]: /api/v1/neo_firm/get_plant_data HTTP/1.1 [status]: 304 [response-time]: 25.394 ms [client]: Mozilla/5.0 (Windows NT 10.0; Win64; x64) AppleWebKit/537.36 (KHTML, like Gecko) Chrome/84.0.4147.125 Safari/537.36
[2020-08-17T20:07:47.063Z] [ip]: ::ffff:127.0.0.1 - [method]: OPTIONS [url]: /api/v1/neo_firm/get_data_farmer_phase/1 HTTP/1.1 [status]: 200 [response-time]: 0.306 ms [client]: Mozilla/5.0 (Windows NT 10.0; Win64; x64) AppleWebKit/537.36 (KHTML, like Gecko) Chrome/84.0.4147.125 Safari/537.36
[2020-08-17T20:07:47.070Z] [ip]: ::ffff:127.0.0.1 - [method]: OPTIONS [url]: /api/v1/neo_firm/get_data_plan/1 HTTP/1.1 [status]: 200 [response-time]: 0.482 ms [client]: Mozilla/5.0 (Windows NT 10.0; Win64; x64) AppleWebKit/537.36 (KHTML, like Gecko) Chrome/84.0.4147.125 Safari/537.36
[2020-08-17T20:07:47.108Z] [ip]: ::ffff:127.0.0.1 - [method]: GET [url]: /api/v1/neo_firm/get_data_farmer_phase/1 HTTP/1.1 [status]: 304 [response-time]: 20.482 ms [client]: Mozilla/5.0 (Windows NT 10.0; Win64; x64) AppleWebKit/537.36 (KHTML, like Gecko) Chrome/84.0.4147.125 Safari/537.36
[2020-08-17T20:07:47.126Z] [ip]: ::ffff:127.0.0.1 - [method]: GET [url]: /api/v1/neo_firm/get_data_plan/1 HTTP/1.1 [status]: 304 [response-time]: 36.277 ms [client]: Mozilla/5.0 (Windows NT 10.0; Win64; x64) AppleWebKit/537.36 (KHTML, like Gecko) Chrome/84.0.4147.125 Safari/537.36
[2020-08-17T20:15:54.637Z] [ip]: ::ffff:127.0.0.1 - [method]: OPTIONS [url]: /api/v1/show/show_user HTTP/1.1 [status]: 200 [response-time]: 0.234 ms [client]: Mozilla/5.0 (Windows NT 10.0; Win64; x64) AppleWebKit/537.36 (KHTML, like Gecko) Chrome/84.0.4147.125 Safari/537.36
[2020-08-17T20:15:54.646Z] [ip]: ::ffff:127.0.0.1 - [method]: GET [url]: /api/v1/show/show_user HTTP/1.1 [status]: 304 [response-time]: 1.706 ms [client]: Mozilla/5.0 (Windows NT 10.0; Win64; x64) AppleWebKit/537.36 (KHTML, like Gecko) Chrome/84.0.4147.125 Safari/537.36
[2020-08-17T20:15:54.700Z] [ip]: ::ffff:127.0.0.1 - [method]: OPTIONS [url]: /api/v1/neo_firm/get_plant_data HTTP/1.1 [status]: 200 [response-time]: 0.254 ms [client]: Mozilla/5.0 (Windows NT 10.0; Win64; x64) AppleWebKit/537.36 (KHTML, like Gecko) Chrome/84.0.4147.125 Safari/537.36
[2020-08-17T20:15:54.717Z] [ip]: ::ffff:127.0.0.1 - [method]: GET [url]: /api/v1/neo_firm/get_plant_data HTTP/1.1 [status]: 304 [response-time]: 8.356 ms [client]: Mozilla/5.0 (Windows NT 10.0; Win64; x64) AppleWebKit/537.36 (KHTML, like Gecko) Chrome/84.0.4147.125 Safari/537.36
[2020-08-17T20:29:20.916Z] [ip]: ::ffff:127.0.0.1 - [method]: OPTIONS [url]: /api/v1/show/show_user HTTP/1.1 [status]: 200 [response-time]: 0.289 ms [client]: Mozilla/5.0 (Windows NT 10.0; Win64; x64) AppleWebKit/537.36 (KHTML, like Gecko) Chrome/84.0.4147.125 Safari/537.36
[2020-08-17T20:29:20.937Z] [ip]: ::ffff:127.0.0.1 - [method]: GET [url]: /api/v1/show/show_user HTTP/1.1 [status]: 304 [response-time]: 10.760 ms [client]: Mozilla/5.0 (Windows NT 10.0; Win64; x64) AppleWebKit/537.36 (KHTML, like Gecko) Chrome/84.0.4147.125 Safari/537.36
[2020-08-17T20:29:20.964Z] [ip]: ::ffff:127.0.0.1 - [method]: OPTIONS [url]: /api/v1/neo_firm/get_plant_data HTTP/1.1 [status]: 200 [response-time]: 0.242 ms [client]: Mozilla/5.0 (Windows NT 10.0; Win64; x64) AppleWebKit/537.36 (KHTML, like Gecko) Chrome/84.0.4147.125 Safari/537.36
[2020-08-17T20:29:20.996Z] [ip]: ::ffff:127.0.0.1 - [method]: GET [url]: /api/v1/neo_firm/get_plant_data HTTP/1.1 [status]: 304 [response-time]: 16.145 ms [client]: Mozilla/5.0 (Windows NT 10.0; Win64; x64) AppleWebKit/537.36 (KHTML, like Gecko) Chrome/84.0.4147.125 Safari/537.36
[2020-08-17T20:29:25.372Z] [ip]: ::ffff:127.0.0.1 - [method]: GET [url]: /api/v1/show/show_user HTTP/1.1 [status]: 304 [response-time]: 2.070 ms [client]: Mozilla/5.0 (Windows NT 10.0; Win64; x64) AppleWebKit/537.36 (KHTML, like Gecko) Chrome/84.0.4147.125 Safari/537.36
[2020-08-17T20:29:25.403Z] [ip]: ::ffff:127.0.0.1 - [method]: GET [url]: /api/v1/neo_firm/get_plant_data HTTP/1.1 [status]: 304 [response-time]: 4.270 ms [client]: Mozilla/5.0 (Windows NT 10.0; Win64; x64) AppleWebKit/537.36 (KHTML, like Gecko) Chrome/84.0.4147.125 Safari/537.36
[2020-08-17T20:38:01.154Z] [ip]: ::ffff:127.0.0.1 - [method]: OPTIONS [url]: /api/v1/neo_firm/get_data_farmer_phase/1 HTTP/1.1 [status]: 200 [response-time]: 0.464 ms [client]: Mozilla/5.0 (Windows NT 10.0; Win64; x64) AppleWebKit/537.36 (KHTML, like Gecko) Chrome/84.0.4147.125 Safari/537.36
[2020-08-17T20:38:01.156Z] [ip]: ::ffff:127.0.0.1 - [method]: OPTIONS [url]: /api/v1/neo_firm/get_data_plan/1 HTTP/1.1 [status]: 200 [response-time]: 0.251 ms [client]: Mozilla/5.0 (Windows NT 10.0; Win64; x64) AppleWebKit/537.36 (KHTML, like Gecko) Chrome/84.0.4147.125 Safari/537.36
[2020-08-17T20:38:01.168Z] [ip]: ::ffff:127.0.0.1 - [method]: GET [url]: /api/v1/neo_firm/get_data_farmer_phase/1 HTTP/1.1 [status]: 304 [response-time]: 7.534 ms [client]: Mozilla/5.0 (Windows NT 10.0; Win64; x64) AppleWebKit/537.36 (KHTML, like Gecko) Chrome/84.0.4147.125 Safari/537.36
[2020-08-17T20:38:01.198Z] [ip]: ::ffff:127.0.0.1 - [method]: GET [url]: /api/v1/neo_firm/get_data_plan/1 HTTP/1.1 [status]: 304 [response-time]: 36.600 ms [client]: Mozilla/5.0 (Windows NT 10.0; Win64; x64) AppleWebKit/537.36 (KHTML, like Gecko) Chrome/84.0.4147.125 Safari/537.36
[2020-08-17T20:49:19.100Z] [ip]: ::ffff:127.0.0.1 - [method]: OPTIONS [url]: /api/v1/show/show_user HTTP/1.1 [status]: 200 [response-time]: 0.249 ms [client]: Mozilla/5.0 (Windows NT 10.0; Win64; x64) AppleWebKit/537.36 (KHTML, like Gecko) Chrome/84.0.4147.125 Safari/537.36
[2020-08-17T20:49:19.109Z] [ip]: ::ffff:127.0.0.1 - [method]: GET [url]: /api/v1/show/show_user HTTP/1.1 [status]: 304 [response-time]: 1.713 ms [client]: Mozilla/5.0 (Windows NT 10.0; Win64; x64) AppleWebKit/537.36 (KHTML, like Gecko) Chrome/84.0.4147.125 Safari/537.36
[2020-08-17T20:49:19.154Z] [ip]: ::ffff:127.0.0.1 - [method]: OPTIONS [url]: /api/v1/neo_firm/get_plant_data HTTP/1.1 [status]: 200 [response-time]: 0.244 ms [client]: Mozilla/5.0 (Windows NT 10.0; Win64; x64) AppleWebKit/537.36 (KHTML, like Gecko) Chrome/84.0.4147.125 Safari/537.36
[2020-08-17T20:49:19.160Z] [ip]: ::ffff:127.0.0.1 - [method]: GET [url]: /api/v1/neo_firm/get_plant_data HTTP/1.1 [status]: 304 [response-time]: 3.019 ms [client]: Mozilla/5.0 (Windows NT 10.0; Win64; x64) AppleWebKit/537.36 (KHTML, like Gecko) Chrome/84.0.4147.125 Safari/537.36
[2020-08-17T20:49:20.267Z] [ip]: ::ffff:127.0.0.1 - [method]: OPTIONS [url]: /api/v1/neo_firm/get_data_farmer_phase/1 HTTP/1.1 [status]: 200 [response-time]: 0.260 ms [client]: Mozilla/5.0 (Windows NT 10.0; Win64; x64) AppleWebKit/537.36 (KHTML, like Gecko) Chrome/84.0.4147.125 Safari/537.36
[2020-08-17T20:49:20.279Z] [ip]: ::ffff:127.0.0.1 - [method]: OPTIONS [url]: /api/v1/neo_firm/get_data_plan/1 HTTP/1.1 [status]: 200 [response-time]: 0.296 ms [client]: Mozilla/5.0 (Windows NT 10.0; Win64; x64) AppleWebKit/537.36 (KHTML, like Gecko) Chrome/84.0.4147.125 Safari/537.36
[2020-08-17T20:49:20.310Z] [ip]: ::ffff:127.0.0.1 - [method]: GET [url]: /api/v1/neo_firm/get_data_plan/1 HTTP/1.1 [status]: 304 [response-time]: 29.774 ms [client]: Mozilla/5.0 (Windows NT 10.0; Win64; x64) AppleWebKit/537.36 (KHTML, like Gecko) Chrome/84.0.4147.125 Safari/537.36
[2020-08-17T20:49:20.312Z] [ip]: ::ffff:127.0.0.1 - [method]: GET [url]: /api/v1/neo_firm/get_data_farmer_phase/1 HTTP/1.1 [status]: 304 [response-time]: 29.814 ms [client]: Mozilla/5.0 (Windows NT 10.0; Win64; x64) AppleWebKit/537.36 (KHTML, like Gecko) Chrome/84.0.4147.125 Safari/537.36
[2020-08-17T20:49:36.588Z] [ip]: ::ffff:127.0.0.1 - [method]: OPTIONS [url]: /api/v1/show/show_user HTTP/1.1 [status]: 200 [response-time]: 0.202 ms [client]: Mozilla/5.0 (Windows NT 10.0; Win64; x64) AppleWebKit/537.36 (KHTML, like Gecko) Chrome/84.0.4147.125 Safari/537.36
[2020-08-17T20:49:36.595Z] [ip]: ::ffff:127.0.0.1 - [method]: GET [url]: /api/v1/show/show_user HTTP/1.1 [status]: 304 [response-time]: 1.274 ms [client]: Mozilla/5.0 (Windows NT 10.0; Win64; x64) AppleWebKit/537.36 (KHTML, like Gecko) Chrome/84.0.4147.125 Safari/537.36
[2020-08-17T20:49:36.658Z] [ip]: ::ffff:127.0.0.1 - [method]: OPTIONS [url]: /api/v1/neo_firm/get_plant_data HTTP/1.1 [status]: 200 [response-time]: 0.233 ms [client]: Mozilla/5.0 (Windows NT 10.0; Win64; x64) AppleWebKit/537.36 (KHTML, like Gecko) Chrome/84.0.4147.125 Safari/537.36
[2020-08-17T20:49:36.671Z] [ip]: ::ffff:127.0.0.1 - [method]: GET [url]: /api/v1/neo_firm/get_plant_data HTTP/1.1 [status]: 304 [response-time]: 5.359 ms [client]: Mozilla/5.0 (Windows NT 10.0; Win64; x64) AppleWebKit/537.36 (KHTML, like Gecko) Chrome/84.0.4147.125 Safari/537.36
[2020-08-17T20:49:58.966Z] [ip]: ::ffff:127.0.0.1 - [method]: OPTIONS [url]: /api/v1/show/show_user HTTP/1.1 [status]: 200 [response-time]: 0.200 ms [client]: Mozilla/5.0 (Windows NT 10.0; Win64; x64) AppleWebKit/537.36 (KHTML, like Gecko) Chrome/84.0.4147.125 Safari/537.36
[2020-08-17T20:49:58.974Z] [ip]: ::ffff:127.0.0.1 - [method]: GET [url]: /api/v1/show/show_user HTTP/1.1 [status]: 304 [response-time]: 1.964 ms [client]: Mozilla/5.0 (Windows NT 10.0; Win64; x64) AppleWebKit/537.36 (KHTML, like Gecko) Chrome/84.0.4147.125 Safari/537.36
[2020-08-17T20:49:59.000Z] [ip]: ::ffff:127.0.0.1 - [method]: OPTIONS [url]: /api/v1/neo_firm/get_plant_data HTTP/1.1 [status]: 200 [response-time]: 0.243 ms [client]: Mozilla/5.0 (Windows NT 10.0; Win64; x64) AppleWebKit/537.36 (KHTML, like Gecko) Chrome/84.0.4147.125 Safari/537.36
[2020-08-17T20:49:59.005Z] [ip]: ::ffff:127.0.0.1 - [method]: GET [url]: /api/v1/neo_firm/get_plant_data HTTP/1.1 [status]: 304 [response-time]: 4.217 ms [client]: Mozilla/5.0 (Windows NT 10.0; Win64; x64) AppleWebKit/537.36 (KHTML, like Gecko) Chrome/84.0.4147.125 Safari/537.36
[2020-08-17T20:50:00.367Z] [ip]: ::ffff:127.0.0.1 - [method]: OPTIONS [url]: /api/v1/neo_firm/get_data_farmer_phase/1 HTTP/1.1 [status]: 200 [response-time]: 0.313 ms [client]: Mozilla/5.0 (Windows NT 10.0; Win64; x64) AppleWebKit/537.36 (KHTML, like Gecko) Chrome/84.0.4147.125 Safari/537.36
[2020-08-17T20:50:00.373Z] [ip]: ::ffff:127.0.0.1 - [method]: OPTIONS [url]: /api/v1/neo_firm/get_data_plan/1 HTTP/1.1 [status]: 200 [response-time]: 0.421 ms [client]: Mozilla/5.0 (Windows NT 10.0; Win64; x64) AppleWebKit/537.36 (KHTML, like Gecko) Chrome/84.0.4147.125 Safari/537.36
[2020-08-17T20:50:00.382Z] [ip]: ::ffff:127.0.0.1 - [method]: GET [url]: /api/v1/neo_firm/get_data_farmer_phase/1 HTTP/1.1 [status]: 304 [response-time]: 5.784 ms [client]: Mozilla/5.0 (Windows NT 10.0; Win64; x64) AppleWebKit/537.36 (KHTML, like Gecko) Chrome/84.0.4147.125 Safari/537.36
[2020-08-17T20:50:00.394Z] [ip]: ::ffff:127.0.0.1 - [method]: GET [url]: /api/v1/neo_firm/get_data_plan/1 HTTP/1.1 [status]: 304 [response-time]: 17.381 ms [client]: Mozilla/5.0 (Windows NT 10.0; Win64; x64) AppleWebKit/537.36 (KHTML, like Gecko) Chrome/84.0.4147.125 Safari/537.36
[2020-08-17T20:50:59.415Z] [ip]: ::ffff:127.0.0.1 - [method]: OPTIONS [url]: /api/v1/show/show_user HTTP/1.1 [status]: 200 [response-time]: 0.228 ms [client]: Mozilla/5.0 (Windows NT 10.0; Win64; x64) AppleWebKit/537.36 (KHTML, like Gecko) Chrome/84.0.4147.125 Safari/537.36
[2020-08-17T20:50:59.464Z] [ip]: ::ffff:127.0.0.1 - [method]: GET [url]: /api/v1/show/show_user HTTP/1.1 [status]: 304 [response-time]: 21.767 ms [client]: Mozilla/5.0 (Windows NT 10.0; Win64; x64) AppleWebKit/537.36 (KHTML, like Gecko) Chrome/84.0.4147.125 Safari/537.36
[2020-08-17T20:50:59.527Z] [ip]: ::ffff:127.0.0.1 - [method]: OPTIONS [url]: /api/v1/neo_firm/get_plant_data HTTP/1.1 [status]: 200 [response-time]: 0.288 ms [client]: Mozilla/5.0 (Windows NT 10.0; Win64; x64) AppleWebKit/537.36 (KHTML, like Gecko) Chrome/84.0.4147.125 Safari/537.36
[2020-08-17T20:50:59.545Z] [ip]: ::ffff:127.0.0.1 - [method]: GET [url]: /api/v1/neo_firm/get_plant_data HTTP/1.1 [status]: 304 [response-time]: 15.648 ms [client]: Mozilla/5.0 (Windows NT 10.0; Win64; x64) AppleWebKit/537.36 (KHTML, like Gecko) Chrome/84.0.4147.125 Safari/537.36
[2020-08-17T20:51:00.471Z] [ip]: ::ffff:127.0.0.1 - [method]: OPTIONS [url]: /api/v1/neo_firm/get_data_farmer_phase/1 HTTP/1.1 [status]: 200 [response-time]: 0.254 ms [client]: Mozilla/5.0 (Windows NT 10.0; Win64; x64) AppleWebKit/537.36 (KHTML, like Gecko) Chrome/84.0.4147.125 Safari/537.36
[2020-08-17T20:51:00.480Z] [ip]: ::ffff:127.0.0.1 - [method]: OPTIONS [url]: /api/v1/neo_firm/get_data_plan/1 HTTP/1.1 [status]: 200 [response-time]: 0.224 ms [client]: Mozilla/5.0 (Windows NT 10.0; Win64; x64) AppleWebKit/537.36 (KHTML, like Gecko) Chrome/84.0.4147.125 Safari/537.36
[2020-08-17T20:51:00.525Z] [ip]: ::ffff:127.0.0.1 - [method]: GET [url]: /api/v1/neo_firm/get_data_farmer_phase/1 HTTP/1.1 [status]: 304 [response-time]: 18.537 ms [client]: Mozilla/5.0 (Windows NT 10.0; Win64; x64) AppleWebKit/537.36 (KHTML, like Gecko) Chrome/84.0.4147.125 Safari/537.36
[2020-08-17T20:51:00.544Z] [ip]: ::ffff:127.0.0.1 - [method]: GET [url]: /api/v1/neo_firm/get_data_plan/1 HTTP/1.1 [status]: 304 [response-time]: 30.082 ms [client]: Mozilla/5.0 (Windows NT 10.0; Win64; x64) AppleWebKit/537.36 (KHTML, like Gecko) Chrome/84.0.4147.125 Safari/537.36
[2020-08-17T20:52:15.539Z] [ip]: ::ffff:127.0.0.1 - [method]: OPTIONS [url]: /api/v1/show/show_user HTTP/1.1 [status]: 200 [response-time]: 0.297 ms [client]: Mozilla/5.0 (Windows NT 10.0; Win64; x64) AppleWebKit/537.36 (KHTML, like Gecko) Chrome/84.0.4147.125 Safari/537.36
[2020-08-17T20:52:15.550Z] [ip]: ::ffff:127.0.0.1 - [method]: GET [url]: /api/v1/show/show_user HTTP/1.1 [status]: 304 [response-time]: 1.405 ms [client]: Mozilla/5.0 (Windows NT 10.0; Win64; x64) AppleWebKit/537.36 (KHTML, like Gecko) Chrome/84.0.4147.125 Safari/537.36
[2020-08-17T20:52:15.599Z] [ip]: ::ffff:127.0.0.1 - [method]: OPTIONS [url]: /api/v1/neo_firm/get_plant_data HTTP/1.1 [status]: 200 [response-time]: 0.219 ms [client]: Mozilla/5.0 (Windows NT 10.0; Win64; x64) AppleWebKit/537.36 (KHTML, like Gecko) Chrome/84.0.4147.125 Safari/537.36
[2020-08-17T20:52:15.610Z] [ip]: ::ffff:127.0.0.1 - [method]: GET [url]: /api/v1/neo_firm/get_plant_data HTTP/1.1 [status]: 304 [response-time]: 3.607 ms [client]: Mozilla/5.0 (Windows NT 10.0; Win64; x64) AppleWebKit/537.36 (KHTML, like Gecko) Chrome/84.0.4147.125 Safari/537.36
[2020-08-17T20:52:16.574Z] [ip]: ::ffff:127.0.0.1 - [method]: OPTIONS [url]: /api/v1/neo_firm/get_data_farmer_phase/1 HTTP/1.1 [status]: 200 [response-time]: 0.251 ms [client]: Mozilla/5.0 (Windows NT 10.0; Win64; x64) AppleWebKit/537.36 (KHTML, like Gecko) Chrome/84.0.4147.125 Safari/537.36
[2020-08-17T20:52:16.575Z] [ip]: ::ffff:127.0.0.1 - [method]: OPTIONS [url]: /api/v1/neo_firm/get_data_plan/1 HTTP/1.1 [status]: 200 [response-time]: 0.229 ms [client]: Mozilla/5.0 (Windows NT 10.0; Win64; x64) AppleWebKit/537.36 (KHTML, like Gecko) Chrome/84.0.4147.125 Safari/537.36
[2020-08-17T20:52:16.587Z] [ip]: ::ffff:127.0.0.1 - [method]: GET [url]: /api/v1/neo_firm/get_data_farmer_phase/1 HTTP/1.1 [status]: 304 [response-time]: 9.299 ms [client]: Mozilla/5.0 (Windows NT 10.0; Win64; x64) AppleWebKit/537.36 (KHTML, like Gecko) Chrome/84.0.4147.125 Safari/537.36
[2020-08-17T20:52:16.610Z] [ip]: ::ffff:127.0.0.1 - [method]: GET [url]: /api/v1/neo_firm/get_data_plan/1 HTTP/1.1 [status]: 304 [response-time]: 23.416 ms [client]: Mozilla/5.0 (Windows NT 10.0; Win64; x64) AppleWebKit/537.36 (KHTML, like Gecko) Chrome/84.0.4147.125 Safari/537.36
[2020-08-17T20:53:02.733Z] [ip]: ::ffff:127.0.0.1 - [method]: OPTIONS [url]: /api/v1/show/show_user HTTP/1.1 [status]: 200 [response-time]: 0.222 ms [client]: Mozilla/5.0 (Windows NT 10.0; Win64; x64) AppleWebKit/537.36 (KHTML, like Gecko) Chrome/84.0.4147.125 Safari/537.36
[2020-08-17T20:53:02.741Z] [ip]: ::ffff:127.0.0.1 - [method]: GET [url]: /api/v1/show/show_user HTTP/1.1 [status]: 304 [response-time]: 3.479 ms [client]: Mozilla/5.0 (Windows NT 10.0; Win64; x64) AppleWebKit/537.36 (KHTML, like Gecko) Chrome/84.0.4147.125 Safari/537.36
[2020-08-17T20:53:02.802Z] [ip]: ::ffff:127.0.0.1 - [method]: OPTIONS [url]: /api/v1/neo_firm/get_plant_data HTTP/1.1 [status]: 200 [response-time]: 0.217 ms [client]: Mozilla/5.0 (Windows NT 10.0; Win64; x64) AppleWebKit/537.36 (KHTML, like Gecko) Chrome/84.0.4147.125 Safari/537.36
[2020-08-17T20:53:02.807Z] [ip]: ::ffff:127.0.0.1 - [method]: GET [url]: /api/v1/neo_firm/get_plant_data HTTP/1.1 [status]: 304 [response-time]: 3.241 ms [client]: Mozilla/5.0 (Windows NT 10.0; Win64; x64) AppleWebKit/537.36 (KHTML, like Gecko) Chrome/84.0.4147.125 Safari/537.36
[2020-08-17T20:53:37.774Z] [ip]: ::ffff:127.0.0.1 - [method]: OPTIONS [url]: /api/v1/show/show_user HTTP/1.1 [status]: 200 [response-time]: 0.213 ms [client]: Mozilla/5.0 (Windows NT 10.0; Win64; x64) AppleWebKit/537.36 (KHTML, like Gecko) Chrome/84.0.4147.125 Safari/537.36
[2020-08-17T20:53:37.781Z] [ip]: ::ffff:127.0.0.1 - [method]: GET [url]: /api/v1/show/show_user HTTP/1.1 [status]: 304 [response-time]: 2.191 ms [client]: Mozilla/5.0 (Windows NT 10.0; Win64; x64) AppleWebKit/537.36 (KHTML, like Gecko) Chrome/84.0.4147.125 Safari/537.36
[2020-08-17T20:53:37.810Z] [ip]: ::ffff:127.0.0.1 - [method]: OPTIONS [url]: /api/v1/neo_firm/get_plant_data HTTP/1.1 [status]: 200 [response-time]: 0.347 ms [client]: Mozilla/5.0 (Windows NT 10.0; Win64; x64) AppleWebKit/537.36 (KHTML, like Gecko) Chrome/84.0.4147.125 Safari/537.36
[2020-08-17T20:53:37.821Z] [ip]: ::ffff:127.0.0.1 - [method]: GET [url]: /api/v1/neo_firm/get_plant_data HTTP/1.1 [status]: 304 [response-time]: 7.904 ms [client]: Mozilla/5.0 (Windows NT 10.0; Win64; x64) AppleWebKit/537.36 (KHTML, like Gecko) Chrome/84.0.4147.125 Safari/537.36
[2020-08-17T20:53:59.546Z] [ip]: ::ffff:127.0.0.1 - [method]: OPTIONS [url]: /api/v1/neo_firm/get_data_farmer_phase/1 HTTP/1.1 [status]: 200 [response-time]: 0.231 ms [client]: Mozilla/5.0 (Windows NT 10.0; Win64; x64) AppleWebKit/537.36 (KHTML, like Gecko) Chrome/84.0.4147.125 Safari/537.36
[2020-08-17T20:53:59.550Z] [ip]: ::ffff:127.0.0.1 - [method]: OPTIONS [url]: /api/v1/neo_firm/get_data_plan/1 HTTP/1.1 [status]: 200 [response-time]: 0.842 ms [client]: Mozilla/5.0 (Windows NT 10.0; Win64; x64) AppleWebKit/537.36 (KHTML, like Gecko) Chrome/84.0.4147.125 Safari/537.36
[2020-08-17T20:53:59.557Z] [ip]: ::ffff:127.0.0.1 - [method]: GET [url]: /api/v1/neo_firm/get_data_farmer_phase/1 HTTP/1.1 [status]: 304 [response-time]: 4.548 ms [client]: Mozilla/5.0 (Windows NT 10.0; Win64; x64) AppleWebKit/537.36 (KHTML, like Gecko) Chrome/84.0.4147.125 Safari/537.36
[2020-08-17T20:53:59.583Z] [ip]: ::ffff:127.0.0.1 - [method]: GET [url]: /api/v1/neo_firm/get_data_plan/1 HTTP/1.1 [status]: 304 [response-time]: 26.785 ms [client]: Mozilla/5.0 (Windows NT 10.0; Win64; x64) AppleWebKit/537.36 (KHTML, like Gecko) Chrome/84.0.4147.125 Safari/537.36
[2020-08-17T20:54:25.637Z] [ip]: ::ffff:127.0.0.1 - [method]: OPTIONS [url]: /api/v1/show/show_user HTTP/1.1 [status]: 200 [response-time]: 0.224 ms [client]: Mozilla/5.0 (Windows NT 10.0; Win64; x64) AppleWebKit/537.36 (KHTML, like Gecko) Chrome/84.0.4147.125 Safari/537.36
[2020-08-17T20:54:25.644Z] [ip]: ::ffff:127.0.0.1 - [method]: GET [url]: /api/v1/show/show_user HTTP/1.1 [status]: 304 [response-time]: 1.301 ms [client]: Mozilla/5.0 (Windows NT 10.0; Win64; x64) AppleWebKit/537.36 (KHTML, like Gecko) Chrome/84.0.4147.125 Safari/537.36
[2020-08-17T20:54:25.700Z] [ip]: ::ffff:127.0.0.1 - [method]: OPTIONS [url]: /api/v1/neo_firm/get_plant_data HTTP/1.1 [status]: 200 [response-time]: 0.196 ms [client]: Mozilla/5.0 (Windows NT 10.0; Win64; x64) AppleWebKit/537.36 (KHTML, like Gecko) Chrome/84.0.4147.125 Safari/537.36
[2020-08-17T20:54:25.717Z] [ip]: ::ffff:127.0.0.1 - [method]: GET [url]: /api/v1/neo_firm/get_plant_data HTTP/1.1 [status]: 304 [response-time]: 13.641 ms [client]: Mozilla/5.0 (Windows NT 10.0; Win64; x64) AppleWebKit/537.36 (KHTML, like Gecko) Chrome/84.0.4147.125 Safari/537.36
[2020-08-17T20:54:26.616Z] [ip]: ::ffff:127.0.0.1 - [method]: OPTIONS [url]: /api/v1/neo_firm/get_data_farmer_phase/1 HTTP/1.1 [status]: 200 [response-time]: 0.219 ms [client]: Mozilla/5.0 (Windows NT 10.0; Win64; x64) AppleWebKit/537.36 (KHTML, like Gecko) Chrome/84.0.4147.125 Safari/537.36
[2020-08-17T20:54:26.627Z] [ip]: ::ffff:127.0.0.1 - [method]: OPTIONS [url]: /api/v1/neo_firm/get_data_plan/1 HTTP/1.1 [status]: 200 [response-time]: 0.200 ms [client]: Mozilla/5.0 (Windows NT 10.0; Win64; x64) AppleWebKit/537.36 (KHTML, like Gecko) Chrome/84.0.4147.125 Safari/537.36
[2020-08-17T20:54:26.630Z] [ip]: ::ffff:127.0.0.1 - [method]: GET [url]: /api/v1/neo_firm/get_data_farmer_phase/1 HTTP/1.1 [status]: 304 [response-time]: 12.342 ms [client]: Mozilla/5.0 (Windows NT 10.0; Win64; x64) AppleWebKit/537.36 (KHTML, like Gecko) Chrome/84.0.4147.125 Safari/537.36
[2020-08-17T20:54:26.652Z] [ip]: ::ffff:127.0.0.1 - [method]: GET [url]: /api/v1/neo_firm/get_data_plan/1 HTTP/1.1 [status]: 304 [response-time]: 22.305 ms [client]: Mozilla/5.0 (Windows NT 10.0; Win64; x64) AppleWebKit/537.36 (KHTML, like Gecko) Chrome/84.0.4147.125 Safari/537.36
[2020-08-17T20:54:32.453Z] [ip]: ::ffff:127.0.0.1 - [method]: OPTIONS [url]: /api/v1/show/show_user HTTP/1.1 [status]: 200 [response-time]: 0.236 ms [client]: Mozilla/5.0 (Windows NT 10.0; Win64; x64) AppleWebKit/537.36 (KHTML, like Gecko) Chrome/84.0.4147.125 Safari/537.36
[2020-08-17T20:54:32.464Z] [ip]: ::ffff:127.0.0.1 - [method]: GET [url]: /api/v1/show/show_user HTTP/1.1 [status]: 304 [response-time]: 2.858 ms [client]: Mozilla/5.0 (Windows NT 10.0; Win64; x64) AppleWebKit/537.36 (KHTML, like Gecko) Chrome/84.0.4147.125 Safari/537.36
[2020-08-17T20:54:32.512Z] [ip]: ::ffff:127.0.0.1 - [method]: OPTIONS [url]: /api/v1/neo_firm/get_plant_data HTTP/1.1 [status]: 200 [response-time]: 0.266 ms [client]: Mozilla/5.0 (Windows NT 10.0; Win64; x64) AppleWebKit/537.36 (KHTML, like Gecko) Chrome/84.0.4147.125 Safari/537.36
[2020-08-17T20:54:32.587Z] [ip]: ::ffff:127.0.0.1 - [method]: GET [url]: /api/v1/neo_firm/get_plant_data HTTP/1.1 [status]: 304 [response-time]: 33.241 ms [client]: Mozilla/5.0 (Windows NT 10.0; Win64; x64) AppleWebKit/537.36 (KHTML, like Gecko) Chrome/84.0.4147.125 Safari/537.36
[2020-08-17T20:54:33.785Z] [ip]: ::ffff:127.0.0.1 - [method]: OPTIONS [url]: /api/v1/neo_firm/get_data_farmer_phase/1 HTTP/1.1 [status]: 200 [response-time]: 0.232 ms [client]: Mozilla/5.0 (Windows NT 10.0; Win64; x64) AppleWebKit/537.36 (KHTML, like Gecko) Chrome/84.0.4147.125 Safari/537.36
[2020-08-17T20:54:33.788Z] [ip]: ::ffff:127.0.0.1 - [method]: OPTIONS [url]: /api/v1/neo_firm/get_data_plan/1 HTTP/1.1 [status]: 200 [response-time]: 0.248 ms [client]: Mozilla/5.0 (Windows NT 10.0; Win64; x64) AppleWebKit/537.36 (KHTML, like Gecko) Chrome/84.0.4147.125 Safari/537.36
[2020-08-17T20:54:33.809Z] [ip]: ::ffff:127.0.0.1 - [method]: GET [url]: /api/v1/neo_firm/get_data_farmer_phase/1 HTTP/1.1 [status]: 304 [response-time]: 13.352 ms [client]: Mozilla/5.0 (Windows NT 10.0; Win64; x64) AppleWebKit/537.36 (KHTML, like Gecko) Chrome/84.0.4147.125 Safari/537.36
[2020-08-17T20:54:33.834Z] [ip]: ::ffff:127.0.0.1 - [method]: GET [url]: /api/v1/neo_firm/get_data_plan/1 HTTP/1.1 [status]: 304 [response-time]: 35.570 ms [client]: Mozilla/5.0 (Windows NT 10.0; Win64; x64) AppleWebKit/537.36 (KHTML, like Gecko) Chrome/84.0.4147.125 Safari/537.36
[2020-08-17T21:01:26.221Z] [ip]: ::ffff:127.0.0.1 - [method]: OPTIONS [url]: /api/v1/show/show_user HTTP/1.1 [status]: 200 [response-time]: 2.006 ms [client]: Mozilla/5.0 (Windows NT 10.0; Win64; x64) AppleWebKit/537.36 (KHTML, like Gecko) Chrome/84.0.4147.125 Safari/537.36
[2020-08-17T21:01:26.229Z] [ip]: ::ffff:127.0.0.1 - [method]: GET [url]: /api/v1/show/show_user HTTP/1.1 [status]: 304 [response-time]: 5.413 ms [client]: Mozilla/5.0 (Windows NT 10.0; Win64; x64) AppleWebKit/537.36 (KHTML, like Gecko) Chrome/84.0.4147.125 Safari/537.36
[2020-08-17T21:01:26.276Z] [ip]: ::ffff:127.0.0.1 - [method]: OPTIONS [url]: /api/v1/neo_firm/get_plant_data HTTP/1.1 [status]: 200 [response-time]: 3.438 ms [client]: Mozilla/5.0 (Windows NT 10.0; Win64; x64) AppleWebKit/537.36 (KHTML, like Gecko) Chrome/84.0.4147.125 Safari/537.36
[2020-08-17T21:01:26.283Z] [ip]: ::ffff:127.0.0.1 - [method]: GET [url]: /api/v1/neo_firm/get_plant_data HTTP/1.1 [status]: 304 [response-time]: 4.836 ms [client]: Mozilla/5.0 (Windows NT 10.0; Win64; x64) AppleWebKit/537.36 (KHTML, like Gecko) Chrome/84.0.4147.125 Safari/537.36
[2020-08-17T21:01:27.283Z] [ip]: ::ffff:127.0.0.1 - [method]: OPTIONS [url]: /api/v1/neo_firm/get_data_farmer_phase/1 HTTP/1.1 [status]: 200 [response-time]: 0.906 ms [client]: Mozilla/5.0 (Windows NT 10.0; Win64; x64) AppleWebKit/537.36 (KHTML, like Gecko) Chrome/84.0.4147.125 Safari/537.36
[2020-08-17T21:01:27.293Z] [ip]: ::ffff:127.0.0.1 - [method]: OPTIONS [url]: /api/v1/neo_firm/get_data_plan/1 HTTP/1.1 [status]: 200 [response-time]: 0.303 ms [client]: Mozilla/5.0 (Windows NT 10.0; Win64; x64) AppleWebKit/537.36 (KHTML, like Gecko) Chrome/84.0.4147.125 Safari/537.36
[2020-08-17T21:01:27.319Z] [ip]: ::ffff:127.0.0.1 - [method]: GET [url]: /api/v1/neo_firm/get_data_plan/1 HTTP/1.1 [status]: 304 [response-time]: 17.957 ms [client]: Mozilla/5.0 (Windows NT 10.0; Win64; x64) AppleWebKit/537.36 (KHTML, like Gecko) Chrome/84.0.4147.125 Safari/537.36
[2020-08-17T21:01:27.322Z] [ip]: ::ffff:127.0.0.1 - [method]: GET [url]: /api/v1/neo_firm/get_data_farmer_phase/1 HTTP/1.1 [status]: 304 [response-time]: 24.549 ms [client]: Mozilla/5.0 (Windows NT 10.0; Win64; x64) AppleWebKit/537.36 (KHTML, like Gecko) Chrome/84.0.4147.125 Safari/537.36
[2020-08-17T21:02:16.607Z] [ip]: ::ffff:127.0.0.1 - [method]: OPTIONS [url]: /api/v1/show/show_user HTTP/1.1 [status]: 200 [response-time]: 0.261 ms [client]: Mozilla/5.0 (Windows NT 10.0; Win64; x64) AppleWebKit/537.36 (KHTML, like Gecko) Chrome/84.0.4147.125 Safari/537.36
[2020-08-17T21:02:16.620Z] [ip]: ::ffff:127.0.0.1 - [method]: GET [url]: /api/v1/show/show_user HTTP/1.1 [status]: 304 [response-time]: 5.581 ms [client]: Mozilla/5.0 (Windows NT 10.0; Win64; x64) AppleWebKit/537.36 (KHTML, like Gecko) Chrome/84.0.4147.125 Safari/537.36
[2020-08-17T21:02:16.662Z] [ip]: ::ffff:127.0.0.1 - [method]: OPTIONS [url]: /api/v1/neo_firm/get_plant_data HTTP/1.1 [status]: 200 [response-time]: 0.264 ms [client]: Mozilla/5.0 (Windows NT 10.0; Win64; x64) AppleWebKit/537.36 (KHTML, like Gecko) Chrome/84.0.4147.125 Safari/537.36
[2020-08-17T21:02:16.674Z] [ip]: ::ffff:127.0.0.1 - [method]: GET [url]: /api/v1/neo_firm/get_plant_data HTTP/1.1 [status]: 304 [response-time]: 9.594 ms [client]: Mozilla/5.0 (Windows NT 10.0; Win64; x64) AppleWebKit/537.36 (KHTML, like Gecko) Chrome/84.0.4147.125 Safari/537.36
[2020-08-17T21:02:19.951Z] [ip]: ::ffff:127.0.0.1 - [method]: OPTIONS [url]: /api/v1/neo_firm/get_data_farmer_phase/1 HTTP/1.1 [status]: 200 [response-time]: 0.284 ms [client]: Mozilla/5.0 (Windows NT 10.0; Win64; x64) AppleWebKit/537.36 (KHTML, like Gecko) Chrome/84.0.4147.125 Safari/537.36
[2020-08-17T21:02:19.954Z] [ip]: ::ffff:127.0.0.1 - [method]: OPTIONS [url]: /api/v1/neo_firm/get_data_plan/1 HTTP/1.1 [status]: 200 [response-time]: 0.341 ms [client]: Mozilla/5.0 (Windows NT 10.0; Win64; x64) AppleWebKit/537.36 (KHTML, like Gecko) Chrome/84.0.4147.125 Safari/537.36
[2020-08-17T21:02:19.970Z] [ip]: ::ffff:127.0.0.1 - [method]: GET [url]: /api/v1/neo_firm/get_data_farmer_phase/1 HTTP/1.1 [status]: 304 [response-time]: 14.346 ms [client]: Mozilla/5.0 (Windows NT 10.0; Win64; x64) AppleWebKit/537.36 (KHTML, like Gecko) Chrome/84.0.4147.125 Safari/537.36
[2020-08-17T21:02:19.998Z] [ip]: ::ffff:127.0.0.1 - [method]: GET [url]: /api/v1/neo_firm/get_data_plan/1 HTTP/1.1 [status]: 304 [response-time]: 40.262 ms [client]: Mozilla/5.0 (Windows NT 10.0; Win64; x64) AppleWebKit/537.36 (KHTML, like Gecko) Chrome/84.0.4147.125 Safari/537.36
[2020-08-17T21:02:22.449Z] [ip]: ::ffff:127.0.0.1 - [method]: OPTIONS [url]: /api/v1/neo_firm/delete_plan HTTP/1.1 [status]: 200 [response-time]: 0.256 ms [client]: Mozilla/5.0 (Windows NT 10.0; Win64; x64) AppleWebKit/537.36 (KHTML, like Gecko) Chrome/84.0.4147.125 Safari/537.36
[2020-08-17T21:03:19.848Z] [ip]: ::ffff:127.0.0.1 - [method]: OPTIONS [url]: /api/v1/show/show_user HTTP/1.1 [status]: 200 [response-time]: 1.949 ms [client]: Mozilla/5.0 (Windows NT 10.0; Win64; x64) AppleWebKit/537.36 (KHTML, like Gecko) Chrome/84.0.4147.125 Safari/537.36
[2020-08-17T21:03:19.855Z] [ip]: ::ffff:127.0.0.1 - [method]: GET [url]: /api/v1/show/show_user HTTP/1.1 [status]: 304 [response-time]: 5.091 ms [client]: Mozilla/5.0 (Windows NT 10.0; Win64; x64) AppleWebKit/537.36 (KHTML, like Gecko) Chrome/84.0.4147.125 Safari/537.36
[2020-08-17T21:03:19.903Z] [ip]: ::ffff:127.0.0.1 - [method]: OPTIONS [url]: /api/v1/neo_firm/get_plant_data HTTP/1.1 [status]: 200 [response-time]: 2.971 ms [client]: Mozilla/5.0 (Windows NT 10.0; Win64; x64) AppleWebKit/537.36 (KHTML, like Gecko) Chrome/84.0.4147.125 Safari/537.36
[2020-08-17T21:03:19.913Z] [ip]: ::ffff:127.0.0.1 - [method]: GET [url]: /api/v1/neo_firm/get_plant_data HTTP/1.1 [status]: 304 [response-time]: 6.826 ms [client]: Mozilla/5.0 (Windows NT 10.0; Win64; x64) AppleWebKit/537.36 (KHTML, like Gecko) Chrome/84.0.4147.125 Safari/537.36
[2020-08-17T21:03:21.717Z] [ip]: ::ffff:127.0.0.1 - [method]: OPTIONS [url]: /api/v1/neo_firm/get_data_farmer_phase/1 HTTP/1.1 [status]: 200 [response-time]: 1.455 ms [client]: Mozilla/5.0 (Windows NT 10.0; Win64; x64) AppleWebKit/537.36 (KHTML, like Gecko) Chrome/84.0.4147.125 Safari/537.36
[2020-08-17T21:03:21.720Z] [ip]: ::ffff:127.0.0.1 - [method]: OPTIONS [url]: /api/v1/neo_firm/get_data_plan/1 HTTP/1.1 [status]: 200 [response-time]: 0.309 ms [client]: Mozilla/5.0 (Windows NT 10.0; Win64; x64) AppleWebKit/537.36 (KHTML, like Gecko) Chrome/84.0.4147.125 Safari/537.36
[2020-08-17T21:03:21.737Z] [ip]: ::ffff:127.0.0.1 - [method]: GET [url]: /api/v1/neo_firm/get_data_farmer_phase/1 HTTP/1.1 [status]: 304 [response-time]: 14.150 ms [client]: Mozilla/5.0 (Windows NT 10.0; Win64; x64) AppleWebKit/537.36 (KHTML, like Gecko) Chrome/84.0.4147.125 Safari/537.36
[2020-08-17T21:03:21.762Z] [ip]: ::ffff:127.0.0.1 - [method]: GET [url]: /api/v1/neo_firm/get_data_plan/1 HTTP/1.1 [status]: 304 [response-time]: 28.069 ms [client]: Mozilla/5.0 (Windows NT 10.0; Win64; x64) AppleWebKit/537.36 (KHTML, like Gecko) Chrome/84.0.4147.125 Safari/537.36
[2020-08-17T21:03:25.996Z] [ip]: ::ffff:127.0.0.1 - [method]: OPTIONS [url]: /api/v1/neo_firm/delete_plan HTTP/1.1 [status]: 200 [response-time]: 0.496 ms [client]: Mozilla/5.0 (Windows NT 10.0; Win64; x64) AppleWebKit/537.36 (KHTML, like Gecko) Chrome/84.0.4147.125 Safari/537.36
[2020-08-17T21:03:44.595Z] [ip]: ::ffff:127.0.0.1 - [method]: OPTIONS [url]: /api/v1/show/show_user HTTP/1.1 [status]: 200 [response-time]: 2.288 ms [client]: Mozilla/5.0 (Windows NT 10.0; Win64; x64) AppleWebKit/537.36 (KHTML, like Gecko) Chrome/84.0.4147.125 Safari/537.36
[2020-08-17T21:03:44.606Z] [ip]: ::ffff:127.0.0.1 - [method]: GET [url]: /api/v1/show/show_user HTTP/1.1 [status]: 304 [response-time]: 5.904 ms [client]: Mozilla/5.0 (Windows NT 10.0; Win64; x64) AppleWebKit/537.36 (KHTML, like Gecko) Chrome/84.0.4147.125 Safari/537.36
[2020-08-17T21:03:44.649Z] [ip]: ::ffff:127.0.0.1 - [method]: OPTIONS [url]: /api/v1/neo_firm/get_plant_data HTTP/1.1 [status]: 200 [response-time]: 3.243 ms [client]: Mozilla/5.0 (Windows NT 10.0; Win64; x64) AppleWebKit/537.36 (KHTML, like Gecko) Chrome/84.0.4147.125 Safari/537.36
[2020-08-17T21:03:44.665Z] [ip]: ::ffff:127.0.0.1 - [method]: GET [url]: /api/v1/neo_firm/get_plant_data HTTP/1.1 [status]: 304 [response-time]: 12.306 ms [client]: Mozilla/5.0 (Windows NT 10.0; Win64; x64) AppleWebKit/537.36 (KHTML, like Gecko) Chrome/84.0.4147.125 Safari/537.36
[2020-08-17T21:03:45.968Z] [ip]: ::ffff:127.0.0.1 - [method]: OPTIONS [url]: /api/v1/neo_firm/get_data_farmer_phase/1 HTTP/1.1 [status]: 200 [response-time]: 0.444 ms [client]: Mozilla/5.0 (Windows NT 10.0; Win64; x64) AppleWebKit/537.36 (KHTML, like Gecko) Chrome/84.0.4147.125 Safari/537.36
[2020-08-17T21:03:45.971Z] [ip]: ::ffff:127.0.0.1 - [method]: OPTIONS [url]: /api/v1/neo_firm/get_data_plan/1 HTTP/1.1 [status]: 200 [response-time]: 0.297 ms [client]: Mozilla/5.0 (Windows NT 10.0; Win64; x64) AppleWebKit/537.36 (KHTML, like Gecko) Chrome/84.0.4147.125 Safari/537.36
[2020-08-17T21:03:45.989Z] [ip]: ::ffff:127.0.0.1 - [method]: GET [url]: /api/v1/neo_firm/get_data_farmer_phase/1 HTTP/1.1 [status]: 304 [response-time]: 16.203 ms [client]: Mozilla/5.0 (Windows NT 10.0; Win64; x64) AppleWebKit/537.36 (KHTML, like Gecko) Chrome/84.0.4147.125 Safari/537.36
[2020-08-17T21:03:46.013Z] [ip]: ::ffff:127.0.0.1 - [method]: GET [url]: /api/v1/neo_firm/get_data_plan/1 HTTP/1.1 [status]: 304 [response-time]: 36.753 ms [client]: Mozilla/5.0 (Windows NT 10.0; Win64; x64) AppleWebKit/537.36 (KHTML, like Gecko) Chrome/84.0.4147.125 Safari/537.36
[2020-08-17T21:03:48.062Z] [ip]: ::ffff:127.0.0.1 - [method]: OPTIONS [url]: /api/v1/neo_firm/delete_plan HTTP/1.1 [status]: 200 [response-time]: 0.294 ms [client]: Mozilla/5.0 (Windows NT 10.0; Win64; x64) AppleWebKit/537.36 (KHTML, like Gecko) Chrome/84.0.4147.125 Safari/537.36
[2020-08-17T21:04:00.429Z] [ip]: ::ffff:127.0.0.1 - [method]: OPTIONS [url]: /api/v1/show/show_user HTTP/1.1 [status]: 200 [response-time]: 3.743 ms [client]: Mozilla/5.0 (Windows NT 10.0; Win64; x64) AppleWebKit/537.36 (KHTML, like Gecko) Chrome/84.0.4147.125 Safari/537.36
[2020-08-17T21:04:00.439Z] [ip]: ::ffff:127.0.0.1 - [method]: GET [url]: /api/v1/show/show_user HTTP/1.1 [status]: 304 [response-time]: 6.649 ms [client]: Mozilla/5.0 (Windows NT 10.0; Win64; x64) AppleWebKit/537.36 (KHTML, like Gecko) Chrome/84.0.4147.125 Safari/537.36
[2020-08-17T21:04:00.496Z] [ip]: ::ffff:127.0.0.1 - [method]: OPTIONS [url]: /api/v1/neo_firm/get_plant_data HTTP/1.1 [status]: 200 [response-time]: 2.177 ms [client]: Mozilla/5.0 (Windows NT 10.0; Win64; x64) AppleWebKit/537.36 (KHTML, like Gecko) Chrome/84.0.4147.125 Safari/537.36
[2020-08-17T21:04:00.509Z] [ip]: ::ffff:127.0.0.1 - [method]: GET [url]: /api/v1/neo_firm/get_plant_data HTTP/1.1 [status]: 304 [response-time]: 10.117 ms [client]: Mozilla/5.0 (Windows NT 10.0; Win64; x64) AppleWebKit/537.36 (KHTML, like Gecko) Chrome/84.0.4147.125 Safari/537.36
[2020-08-17T21:04:01.828Z] [ip]: ::ffff:127.0.0.1 - [method]: OPTIONS [url]: /api/v1/neo_firm/get_data_farmer_phase/1 HTTP/1.1 [status]: 200 [response-time]: 0.420 ms [client]: Mozilla/5.0 (Windows NT 10.0; Win64; x64) AppleWebKit/537.36 (KHTML, like Gecko) Chrome/84.0.4147.125 Safari/537.36
[2020-08-17T21:04:01.833Z] [ip]: ::ffff:127.0.0.1 - [method]: OPTIONS [url]: /api/v1/neo_firm/get_data_plan/1 HTTP/1.1 [status]: 200 [response-time]: 0.393 ms [client]: Mozilla/5.0 (Windows NT 10.0; Win64; x64) AppleWebKit/537.36 (KHTML, like Gecko) Chrome/84.0.4147.125 Safari/537.36
[2020-08-17T21:04:01.847Z] [ip]: ::ffff:127.0.0.1 - [method]: GET [url]: /api/v1/neo_firm/get_data_farmer_phase/1 HTTP/1.1 [status]: 304 [response-time]: 11.032 ms [client]: Mozilla/5.0 (Windows NT 10.0; Win64; x64) AppleWebKit/537.36 (KHTML, like Gecko) Chrome/84.0.4147.125 Safari/537.36
[2020-08-17T21:04:01.872Z] [ip]: ::ffff:127.0.0.1 - [method]: GET [url]: /api/v1/neo_firm/get_data_plan/1 HTTP/1.1 [status]: 304 [response-time]: 31.556 ms [client]: Mozilla/5.0 (Windows NT 10.0; Win64; x64) AppleWebKit/537.36 (KHTML, like Gecko) Chrome/84.0.4147.125 Safari/537.36
[2020-08-17T21:04:04.208Z] [ip]: ::ffff:127.0.0.1 - [method]: OPTIONS [url]: /api/v1/neo_firm/delete_plan HTTP/1.1 [status]: 200 [response-time]: 0.286 ms [client]: Mozilla/5.0 (Windows NT 10.0; Win64; x64) AppleWebKit/537.36 (KHTML, like Gecko) Chrome/84.0.4147.125 Safari/537.36
[2020-08-17T21:04:04.241Z] [ip]: ::ffff:127.0.0.1 - [method]: POST [url]: /api/v1/neo_firm/delete_plan HTTP/1.1 [status]: 200 [response-time]: 14.048 ms [client]: Mozilla/5.0 (Windows NT 10.0; Win64; x64) AppleWebKit/537.36 (KHTML, like Gecko) Chrome/84.0.4147.125 Safari/537.36
[2020-08-17T21:04:09.640Z] [ip]: ::ffff:127.0.0.1 - [method]: OPTIONS [url]: /api/v1/neo_firm/get_plant_data HTTP/1.1 [status]: 200 [response-time]: 0.466 ms [client]: Mozilla/5.0 (Windows NT 10.0; Win64; x64) AppleWebKit/537.36 (KHTML, like Gecko) Chrome/84.0.4147.125 Safari/537.36
[2020-08-17T21:04:09.650Z] [ip]: ::ffff:127.0.0.1 - [method]: GET [url]: /api/v1/neo_firm/get_plant_data HTTP/1.1 [status]: 304 [response-time]: 6.613 ms [client]: Mozilla/5.0 (Windows NT 10.0; Win64; x64) AppleWebKit/537.36 (KHTML, like Gecko) Chrome/84.0.4147.125 Safari/537.36
[2020-08-17T21:04:10.333Z] [ip]: ::ffff:127.0.0.1 - [method]: OPTIONS [url]: /api/v1/neo_firm/get_data_farmer_phase/1 HTTP/1.1 [status]: 200 [response-time]: 0.293 ms [client]: Mozilla/5.0 (Windows NT 10.0; Win64; x64) AppleWebKit/537.36 (KHTML, like Gecko) Chrome/84.0.4147.125 Safari/537.36
[2020-08-17T21:04:10.335Z] [ip]: ::ffff:127.0.0.1 - [method]: OPTIONS [url]: /api/v1/neo_firm/get_data_plan/1 HTTP/1.1 [status]: 200 [response-time]: 0.334 ms [client]: Mozilla/5.0 (Windows NT 10.0; Win64; x64) AppleWebKit/537.36 (KHTML, like Gecko) Chrome/84.0.4147.125 Safari/537.36
[2020-08-17T21:04:10.352Z] [ip]: ::ffff:127.0.0.1 - [method]: GET [url]: /api/v1/neo_firm/get_data_farmer_phase/1 HTTP/1.1 [status]: 304 [response-time]: 8.257 ms [client]: Mozilla/5.0 (Windows NT 10.0; Win64; x64) AppleWebKit/537.36 (KHTML, like Gecko) Chrome/84.0.4147.125 Safari/537.36
[2020-08-17T21:04:10.365Z] [ip]: ::ffff:127.0.0.1 - [method]: GET [url]: /api/v1/neo_firm/get_data_plan/1 HTTP/1.1 [status]: 200 [response-time]: 21.441 ms [client]: Mozilla/5.0 (Windows NT 10.0; Win64; x64) AppleWebKit/537.36 (KHTML, like Gecko) Chrome/84.0.4147.125 Safari/537.36
[2020-08-17T21:15:00.791Z] [ip]: ::ffff:127.0.0.1 - [method]: OPTIONS [url]: /api/v1/show/show_user HTTP/1.1 [status]: 200 [response-time]: 1.990 ms [client]: Mozilla/5.0 (Windows NT 10.0; Win64; x64) AppleWebKit/537.36 (KHTML, like Gecko) Chrome/84.0.4147.125 Safari/537.36
[2020-08-17T21:15:00.800Z] [ip]: ::ffff:127.0.0.1 - [method]: GET [url]: /api/v1/show/show_user HTTP/1.1 [status]: 304 [response-time]: 6.889 ms [client]: Mozilla/5.0 (Windows NT 10.0; Win64; x64) AppleWebKit/537.36 (KHTML, like Gecko) Chrome/84.0.4147.125 Safari/537.36
[2020-08-17T21:15:00.847Z] [ip]: ::ffff:127.0.0.1 - [method]: OPTIONS [url]: /api/v1/neo_firm/get_plant_data HTTP/1.1 [status]: 200 [response-time]: 2.231 ms [client]: Mozilla/5.0 (Windows NT 10.0; Win64; x64) AppleWebKit/537.36 (KHTML, like Gecko) Chrome/84.0.4147.125 Safari/537.36
[2020-08-17T21:15:00.858Z] [ip]: ::ffff:127.0.0.1 - [method]: GET [url]: /api/v1/neo_firm/get_plant_data HTTP/1.1 [status]: 304 [response-time]: 8.053 ms [client]: Mozilla/5.0 (Windows NT 10.0; Win64; x64) AppleWebKit/537.36 (KHTML, like Gecko) Chrome/84.0.4147.125 Safari/537.36
[2020-08-17T21:15:01.999Z] [ip]: ::ffff:127.0.0.1 - [method]: OPTIONS [url]: /api/v1/neo_firm/get_data_farmer_phase/1 HTTP/1.1 [status]: 200 [response-time]: 0.516 ms [client]: Mozilla/5.0 (Windows NT 10.0; Win64; x64) AppleWebKit/537.36 (KHTML, like Gecko) Chrome/84.0.4147.125 Safari/537.36
[2020-08-17T21:15:02.003Z] [ip]: ::ffff:127.0.0.1 - [method]: OPTIONS [url]: /api/v1/neo_firm/get_data_plan/1 HTTP/1.1 [status]: 200 [response-time]: 0.366 ms [client]: Mozilla/5.0 (Windows NT 10.0; Win64; x64) AppleWebKit/537.36 (KHTML, like Gecko) Chrome/84.0.4147.125 Safari/537.36
[2020-08-17T21:15:02.014Z] [ip]: ::ffff:127.0.0.1 - [method]: GET [url]: /api/v1/neo_firm/get_data_farmer_phase/1 HTTP/1.1 [status]: 304 [response-time]: 9.709 ms [client]: Mozilla/5.0 (Windows NT 10.0; Win64; x64) AppleWebKit/537.36 (KHTML, like Gecko) Chrome/84.0.4147.125 Safari/537.36
[2020-08-17T21:15:02.020Z] [ip]: ::ffff:127.0.0.1 - [method]: GET [url]: /api/v1/neo_firm/get_data_plan/1 HTTP/1.1 [status]: 304 [response-time]: 13.209 ms [client]: Mozilla/5.0 (Windows NT 10.0; Win64; x64) AppleWebKit/537.36 (KHTML, like Gecko) Chrome/84.0.4147.125 Safari/537.36
[2020-08-17T21:38:54.554Z] [ip]: ::ffff:127.0.0.1 - [method]: OPTIONS [url]: /api/v1/show/show_user HTTP/1.1 [status]: 200 [response-time]: 0.350 ms [client]: Mozilla/5.0 (Windows NT 10.0; Win64; x64) AppleWebKit/537.36 (KHTML, like Gecko) Chrome/84.0.4147.125 Safari/537.36
[2020-08-17T21:38:54.567Z] [ip]: ::ffff:127.0.0.1 - [method]: GET [url]: /api/v1/show/show_user HTTP/1.1 [status]: 304 [response-time]: 2.068 ms [client]: Mozilla/5.0 (Windows NT 10.0; Win64; x64) AppleWebKit/537.36 (KHTML, like Gecko) Chrome/84.0.4147.125 Safari/537.36
[2020-08-17T21:38:54.715Z] [ip]: ::ffff:127.0.0.1 - [method]: OPTIONS [url]: /api/v1/neo_firm/get_plant_data HTTP/1.1 [status]: 200 [response-time]: 0.312 ms [client]: Mozilla/5.0 (Windows NT 10.0; Win64; x64) AppleWebKit/537.36 (KHTML, like Gecko) Chrome/84.0.4147.125 Safari/537.36
[2020-08-17T21:38:54.752Z] [ip]: ::ffff:127.0.0.1 - [method]: GET [url]: /api/v1/neo_firm/get_plant_data HTTP/1.1 [status]: 304 [response-time]: 19.472 ms [client]: Mozilla/5.0 (Windows NT 10.0; Win64; x64) AppleWebKit/537.36 (KHTML, like Gecko) Chrome/84.0.4147.125 Safari/537.36
[2020-08-17T21:38:55.741Z] [ip]: ::ffff:127.0.0.1 - [method]: OPTIONS [url]: /api/v1/neo_firm/get_data_farmer_phase/1 HTTP/1.1 [status]: 200 [response-time]: 0.358 ms [client]: Mozilla/5.0 (Windows NT 10.0; Win64; x64) AppleWebKit/537.36 (KHTML, like Gecko) Chrome/84.0.4147.125 Safari/537.36
[2020-08-17T21:38:55.744Z] [ip]: ::ffff:127.0.0.1 - [method]: OPTIONS [url]: /api/v1/neo_firm/get_data_plan/1 HTTP/1.1 [status]: 200 [response-time]: 0.342 ms [client]: Mozilla/5.0 (Windows NT 10.0; Win64; x64) AppleWebKit/537.36 (KHTML, like Gecko) Chrome/84.0.4147.125 Safari/537.36
[2020-08-17T21:38:55.756Z] [ip]: ::ffff:127.0.0.1 - [method]: GET [url]: /api/v1/neo_firm/get_data_farmer_phase/1 HTTP/1.1 [status]: 304 [response-time]: 9.486 ms [client]: Mozilla/5.0 (Windows NT 10.0; Win64; x64) AppleWebKit/537.36 (KHTML, like Gecko) Chrome/84.0.4147.125 Safari/537.36
[2020-08-17T21:38:55.760Z] [ip]: ::ffff:127.0.0.1 - [method]: GET [url]: /api/v1/neo_firm/get_data_plan/1 HTTP/1.1 [status]: 304 [response-time]: 12.459 ms [client]: Mozilla/5.0 (Windows NT 10.0; Win64; x64) AppleWebKit/537.36 (KHTML, like Gecko) Chrome/84.0.4147.125 Safari/537.36
[2020-08-17T21:39:04.475Z] [ip]: ::ffff:127.0.0.1 - [method]: OPTIONS [url]: /api/v1/neo_firm/update_plan HTTP/1.1 [status]: 200 [response-time]: 0.274 ms [client]: Mozilla/5.0 (Windows NT 10.0; Win64; x64) AppleWebKit/537.36 (KHTML, like Gecko) Chrome/84.0.4147.125 Safari/537.36
[2020-08-17T21:39:04.507Z] [ip]: ::ffff:127.0.0.1 - [method]: POST [url]: /api/v1/neo_firm/update_plan HTTP/1.1 [status]: 200 [response-time]: 8.418 ms [client]: Mozilla/5.0 (Windows NT 10.0; Win64; x64) AppleWebKit/537.36 (KHTML, like Gecko) Chrome/84.0.4147.125 Safari/537.36
[2020-08-17T21:39:13.348Z] [ip]: ::ffff:127.0.0.1 - [method]: OPTIONS [url]: /api/v1/neo_firm/update_plan HTTP/1.1 [status]: 200 [response-time]: 0.284 ms [client]: Mozilla/5.0 (Windows NT 10.0; Win64; x64) AppleWebKit/537.36 (KHTML, like Gecko) Chrome/84.0.4147.125 Safari/537.36
[2020-08-17T21:39:13.359Z] [ip]: ::ffff:127.0.0.1 - [method]: POST [url]: /api/v1/neo_firm/update_plan HTTP/1.1 [status]: 200 [response-time]: 4.943 ms [client]: Mozilla/5.0 (Windows NT 10.0; Win64; x64) AppleWebKit/537.36 (KHTML, like Gecko) Chrome/84.0.4147.125 Safari/537.36
[2020-08-18T11:03:25.759Z] [ip]: ::ffff:127.0.0.1 - [method]: OPTIONS [url]: /api/v1/show/show_user HTTP/1.1 [status]: 200 [response-time]: 3.884 ms [client]: Mozilla/5.0 (Windows NT 10.0; Win64; x64) AppleWebKit/537.36 (KHTML, like Gecko) Chrome/84.0.4147.125 Safari/537.36
[2020-08-18T11:03:25.769Z] [ip]: ::ffff:127.0.0.1 - [method]: OPTIONS [url]: /api/v1/user/get_user HTTP/1.1 [status]: 200 [response-time]: 1.128 ms [client]: Mozilla/5.0 (Windows NT 10.0; Win64; x64) AppleWebKit/537.36 (KHTML, like Gecko) Chrome/84.0.4147.125 Safari/537.36
[2020-08-18T11:03:25.772Z] [ip]: ::ffff:127.0.0.1 - [method]: OPTIONS [url]: /api/v1/trader/get_product HTTP/1.1 [status]: 200 [response-time]: 1.937 ms [client]: Mozilla/5.0 (Windows NT 10.0; Win64; x64) AppleWebKit/537.36 (KHTML, like Gecko) Chrome/84.0.4147.125 Safari/537.36
[2020-08-18T11:03:26.193Z] [ip]: ::ffff:127.0.0.1 - [method]: GET [url]: /api/v1/show/show_user HTTP/1.1 [status]: 304 [response-time]: 429.285 ms [client]: Mozilla/5.0 (Windows NT 10.0; Win64; x64) AppleWebKit/537.36 (KHTML, like Gecko) Chrome/84.0.4147.125 Safari/537.36
[2020-08-18T11:03:26.198Z] [ip]: ::ffff:127.0.0.1 - [method]: GET [url]: /api/v1/user/get_user HTTP/1.1 [status]: 304 [response-time]: 421.798 ms [client]: Mozilla/5.0 (Windows NT 10.0; Win64; x64) AppleWebKit/537.36 (KHTML, like Gecko) Chrome/84.0.4147.125 Safari/537.36
[2020-08-18T11:03:26.216Z] [ip]: ::ffff:127.0.0.1 - [method]: OPTIONS [url]: /api/v1/neo_firm/get_plant_in_network HTTP/1.1 [status]: 200 [response-time]: 2.153 ms [client]: Mozilla/5.0 (Windows NT 10.0; Win64; x64) AppleWebKit/537.36 (KHTML, like Gecko) Chrome/84.0.4147.125 Safari/537.36
[2020-08-18T11:03:26.225Z] [ip]: ::ffff:127.0.0.1 - [method]: GET [url]: /api/v1/trader/get_product HTTP/1.1 [status]: 304 [response-time]: 450.185 ms [client]: Mozilla/5.0 (Windows NT 10.0; Win64; x64) AppleWebKit/537.36 (KHTML, like Gecko) Chrome/84.0.4147.125 Safari/537.36
[2020-08-18T11:03:27.036Z] [ip]: ::ffff:127.0.0.1 - [method]: GET [url]: /api/v1/neo_firm/get_plant_in_network HTTP/1.1 [status]: 304 [response-time]: 818.491 ms [client]: Mozilla/5.0 (Windows NT 10.0; Win64; x64) AppleWebKit/537.36 (KHTML, like Gecko) Chrome/84.0.4147.125 Safari/537.36
[2020-08-18T11:03:59.402Z] [ip]: ::ffff:127.0.0.1 - [method]: OPTIONS [url]: /api/v1/neo_firm/get_plant_data HTTP/1.1 [status]: 200 [response-time]: 0.226 ms [client]: Mozilla/5.0 (Windows NT 10.0; Win64; x64) AppleWebKit/537.36 (KHTML, like Gecko) Chrome/84.0.4147.125 Safari/537.36
[2020-08-18T11:03:59.786Z] [ip]: ::ffff:127.0.0.1 - [method]: GET [url]: /api/v1/neo_firm/get_plant_data HTTP/1.1 [status]: 304 [response-time]: 100.109 ms [client]: Mozilla/5.0 (Windows NT 10.0; Win64; x64) AppleWebKit/537.36 (KHTML, like Gecko) Chrome/84.0.4147.125 Safari/537.36
[2020-08-18T11:04:00.824Z] [ip]: ::ffff:127.0.0.1 - [method]: OPTIONS [url]: /api/v1/neo_firm/get_data_farmer_phase/1 HTTP/1.1 [status]: 200 [response-time]: 0.404 ms [client]: Mozilla/5.0 (Windows NT 10.0; Win64; x64) AppleWebKit/537.36 (KHTML, like Gecko) Chrome/84.0.4147.125 Safari/537.36
[2020-08-18T11:04:00.826Z] [ip]: ::ffff:127.0.0.1 - [method]: OPTIONS [url]: /api/v1/neo_firm/get_data_plan/1 HTTP/1.1 [status]: 200 [response-time]: 0.266 ms [client]: Mozilla/5.0 (Windows NT 10.0; Win64; x64) AppleWebKit/537.36 (KHTML, like Gecko) Chrome/84.0.4147.125 Safari/537.36
[2020-08-18T11:04:00.873Z] [ip]: ::ffff:127.0.0.1 - [method]: GET [url]: /api/v1/neo_firm/get_data_farmer_phase/1 HTTP/1.1 [status]: 304 [response-time]: 44.026 ms [client]: Mozilla/5.0 (Windows NT 10.0; Win64; x64) AppleWebKit/537.36 (KHTML, like Gecko) Chrome/84.0.4147.125 Safari/537.36
[2020-08-18T11:04:00.887Z] [ip]: ::ffff:127.0.0.1 - [method]: GET [url]: /api/v1/neo_firm/get_data_plan/1 HTTP/1.1 [status]: 200 [response-time]: 53.992 ms [client]: Mozilla/5.0 (Windows NT 10.0; Win64; x64) AppleWebKit/537.36 (KHTML, like Gecko) Chrome/84.0.4147.125 Safari/537.36
[2020-08-18T11:04:12.442Z] [ip]: ::ffff:127.0.0.1 - [method]: OPTIONS [url]: /api/v1/show/show_user HTTP/1.1 [status]: 200 [response-time]: 0.224 ms [client]: Mozilla/5.0 (Windows NT 10.0; Win64; x64) AppleWebKit/537.36 (KHTML, like Gecko) Chrome/84.0.4147.125 Safari/537.36
[2020-08-18T11:04:12.446Z] [ip]: ::ffff:127.0.0.1 - [method]: GET [url]: /api/v1/show/show_user HTTP/1.1 [status]: 304 [response-time]: 1.421 ms [client]: Mozilla/5.0 (Windows NT 10.0; Win64; x64) AppleWebKit/537.36 (KHTML, like Gecko) Chrome/84.0.4147.125 Safari/537.36
[2020-08-18T11:04:12.483Z] [ip]: ::ffff:127.0.0.1 - [method]: OPTIONS [url]: /api/v1/neo_firm/get_plant_data HTTP/1.1 [status]: 200 [response-time]: 0.239 ms [client]: Mozilla/5.0 (Windows NT 10.0; Win64; x64) AppleWebKit/537.36 (KHTML, like Gecko) Chrome/84.0.4147.125 Safari/537.36
[2020-08-18T11:04:12.494Z] [ip]: ::ffff:127.0.0.1 - [method]: GET [url]: /api/v1/neo_firm/get_plant_data HTTP/1.1 [status]: 304 [response-time]: 7.583 ms [client]: Mozilla/5.0 (Windows NT 10.0; Win64; x64) AppleWebKit/537.36 (KHTML, like Gecko) Chrome/84.0.4147.125 Safari/537.36
[2020-08-18T11:04:13.501Z] [ip]: ::ffff:127.0.0.1 - [method]: OPTIONS [url]: /api/v1/neo_firm/get_data_farmer_phase/1 HTTP/1.1 [status]: 200 [response-time]: 0.257 ms [client]: Mozilla/5.0 (Windows NT 10.0; Win64; x64) AppleWebKit/537.36 (KHTML, like Gecko) Chrome/84.0.4147.125 Safari/537.36
[2020-08-18T11:04:13.507Z] [ip]: ::ffff:127.0.0.1 - [method]: OPTIONS [url]: /api/v1/neo_firm/get_data_plan/1 HTTP/1.1 [status]: 200 [response-time]: 0.440 ms [client]: Mozilla/5.0 (Windows NT 10.0; Win64; x64) AppleWebKit/537.36 (KHTML, like Gecko) Chrome/84.0.4147.125 Safari/537.36
[2020-08-18T11:04:13.521Z] [ip]: ::ffff:127.0.0.1 - [method]: GET [url]: /api/v1/neo_firm/get_data_farmer_phase/1 HTTP/1.1 [status]: 304 [response-time]: 6.179 ms [client]: Mozilla/5.0 (Windows NT 10.0; Win64; x64) AppleWebKit/537.36 (KHTML, like Gecko) Chrome/84.0.4147.125 Safari/537.36
[2020-08-18T11:04:13.618Z] [ip]: ::ffff:127.0.0.1 - [method]: GET [url]: /api/v1/neo_firm/get_data_plan/1 HTTP/1.1 [status]: 304 [response-time]: 13.469 ms [client]: Mozilla/5.0 (Windows NT 10.0; Win64; x64) AppleWebKit/537.36 (KHTML, like Gecko) Chrome/84.0.4147.125 Safari/537.36
