[2019-09-27T11:35:25.750Z] [ip]: ::ffff:127.0.0.1 - [method]: OPTIONS [url]: /api/v1/show/show_user HTTP/1.1 [status]: 200 [response-time]: 2.827 ms [client]: Mozilla/5.0 (Windows NT 10.0; Win64; x64) AppleWebKit/537.36 (KHTML, like Gecko) Chrome/77.0.3865.90 Safari/537.36
[2019-09-27T11:35:25.753Z] [ip]: ::ffff:127.0.0.1 - [method]: OPTIONS [url]: /api/v1/trader/get_product HTTP/1.1 [status]: 200 [response-time]: 1.204 ms [client]: Mozilla/5.0 (Windows NT 10.0; Win64; x64) AppleWebKit/537.36 (KHTML, like Gecko) Chrome/77.0.3865.90 Safari/537.36
[2019-09-27T11:35:25.962Z] [ip]: ::ffff:127.0.0.1 - [method]: GET [url]: /api/v1/show/show_user HTTP/1.1 [status]: 304 [response-time]: 65.799 ms [client]: Mozilla/5.0 (Windows NT 10.0; Win64; x64) AppleWebKit/537.36 (KHTML, like Gecko) Chrome/77.0.3865.90 Safari/537.36
[2019-09-27T11:35:25.975Z] [ip]: ::ffff:127.0.0.1 - [method]: GET [url]: /api/v1/trader/get_product HTTP/1.1 [status]: 304 [response-time]: 94.056 ms [client]: Mozilla/5.0 (Windows NT 10.0; Win64; x64) AppleWebKit/537.36 (KHTML, like Gecko) Chrome/77.0.3865.90 Safari/537.36
[2019-09-27T11:35:26.030Z] [ip]: ::ffff:127.0.0.1 - [method]: GET [url]: /api/v1/trader/image/plant_3.png HTTP/1.1 [status]: 304 [response-time]: 37.163 ms [client]: Mozilla/5.0 (Windows NT 10.0; Win64; x64) AppleWebKit/537.36 (KHTML, like Gecko) Chrome/77.0.3865.90 Safari/537.36
[2019-09-27T11:35:26.042Z] [ip]: ::ffff:127.0.0.1 - [method]: GET [url]: /api/v1/trader/image/plant_4.png HTTP/1.1 [status]: 304 [response-time]: 44.256 ms [client]: Mozilla/5.0 (Windows NT 10.0; Win64; x64) AppleWebKit/537.36 (KHTML, like Gecko) Chrome/77.0.3865.90 Safari/537.36
[2019-09-27T11:35:26.062Z] [ip]: ::ffff:127.0.0.1 - [method]: GET [url]: /api/v1/trader/image/plant_1.png HTTP/1.1 [status]: 304 [response-time]: 66.498 ms [client]: Mozilla/5.0 (Windows NT 10.0; Win64; x64) AppleWebKit/537.36 (KHTML, like Gecko) Chrome/77.0.3865.90 Safari/537.36
[2019-09-27T11:35:26.067Z] [ip]: ::ffff:127.0.0.1 - [method]: GET [url]: /api/v1/trader/image/plant_5.png HTTP/1.1 [status]: 304 [response-time]: 72.726 ms [client]: Mozilla/5.0 (Windows NT 10.0; Win64; x64) AppleWebKit/537.36 (KHTML, like Gecko) Chrome/77.0.3865.90 Safari/537.36
[2019-09-27T11:35:29.433Z] [ip]: ::ffff:127.0.0.1 - [method]: OPTIONS [url]: /api/v1/neutrally/get_order_all HTTP/1.1 [status]: 200 [response-time]: 0.919 ms [client]: Mozilla/5.0 (Windows NT 10.0; Win64; x64) AppleWebKit/537.36 (KHTML, like Gecko) Chrome/77.0.3865.90 Safari/537.36
[2019-09-27T11:35:29.482Z] [ip]: ::ffff:127.0.0.1 - [method]: GET [url]: /api/v1/neutrally/get_order_all HTTP/1.1 [status]: 200 [response-time]: 13.883 ms [client]: Mozilla/5.0 (Windows NT 10.0; Win64; x64) AppleWebKit/537.36 (KHTML, like Gecko) Chrome/77.0.3865.90 Safari/537.36
[2019-09-27T11:35:31.636Z] [ip]: ::ffff:127.0.0.1 - [method]: OPTIONS [url]: /api/v1/neutrally/get_order_info HTTP/1.1 [status]: 200 [response-time]: 0.162 ms [client]: Mozilla/5.0 (Windows NT 10.0; Win64; x64) AppleWebKit/537.36 (KHTML, like Gecko) Chrome/77.0.3865.90 Safari/537.36
[2019-09-27T11:35:31.772Z] [ip]: ::ffff:127.0.0.1 - [method]: POST [url]: /api/v1/neutrally/get_order_info HTTP/1.1 [status]: 200 [response-time]: 8.909 ms [client]: Mozilla/5.0 (Windows NT 10.0; Win64; x64) AppleWebKit/537.36 (KHTML, like Gecko) Chrome/77.0.3865.90 Safari/537.36
[2019-09-27T11:35:49.038Z] [ip]: ::ffff:127.0.0.1 - [method]: OPTIONS [url]: /api/v1/neutrally/get_order_se_all HTTP/1.1 [status]: 200 [response-time]: 0.183 ms [client]: Mozilla/5.0 (Windows NT 10.0; Win64; x64) AppleWebKit/537.36 (KHTML, like Gecko) Chrome/77.0.3865.90 Safari/537.36
[2019-09-27T11:35:49.041Z] [ip]: ::ffff:127.0.0.1 - [method]: OPTIONS [url]: /api/v1/show/show_user HTTP/1.1 [status]: 200 [response-time]: 0.136 ms [client]: Mozilla/5.0 (Windows NT 10.0; Win64; x64) AppleWebKit/537.36 (KHTML, like Gecko) Chrome/77.0.3865.90 Safari/537.36
[2019-09-27T11:35:49.087Z] [ip]: ::ffff:127.0.0.1 - [method]: GET [url]: /api/v1/neutrally/get_order_se_all HTTP/1.1 [status]: 200 [response-time]: 10.408 ms [client]: Mozilla/5.0 (Windows NT 10.0; Win64; x64) AppleWebKit/537.36 (KHTML, like Gecko) Chrome/77.0.3865.90 Safari/537.36
[2019-09-27T11:35:49.089Z] [ip]: ::ffff:127.0.0.1 - [method]: GET [url]: /api/v1/show/show_user HTTP/1.1 [status]: 304 [response-time]: 11.552 ms [client]: Mozilla/5.0 (Windows NT 10.0; Win64; x64) AppleWebKit/537.36 (KHTML, like Gecko) Chrome/77.0.3865.90 Safari/537.36
[2019-09-27T11:35:53.683Z] [ip]: ::ffff:127.0.0.1 - [method]: GET [url]: /api/v1/neutrally/get_order_se_all HTTP/1.1 [status]: 304 [response-time]: 1.829 ms [client]: Mozilla/5.0 (Windows NT 10.0; Win64; x64) AppleWebKit/537.36 (KHTML, like Gecko) Chrome/77.0.3865.90 Safari/537.36
[2019-09-27T11:35:53.684Z] [ip]: ::ffff:127.0.0.1 - [method]: GET [url]: /api/v1/show/show_user HTTP/1.1 [status]: 304 [response-time]: 9.323 ms [client]: Mozilla/5.0 (Windows NT 10.0; Win64; x64) AppleWebKit/537.36 (KHTML, like Gecko) Chrome/77.0.3865.90 Safari/537.36
[2019-09-27T11:36:46.629Z] [ip]: ::ffff:127.0.0.1 - [method]: OPTIONS [url]: /api/v1/trader/get_cart_trader HTTP/1.1 [status]: 200 [response-time]: 0.177 ms [client]: Mozilla/5.0 (Windows NT 10.0; Win64; x64) AppleWebKit/537.36 (KHTML, like Gecko) Chrome/77.0.3865.90 Safari/537.36
[2019-09-27T11:36:46.633Z] [ip]: ::ffff:127.0.0.1 - [method]: OPTIONS [url]: /api/v1/show/show_user HTTP/1.1 [status]: 200 [response-time]: 0.127 ms [client]: Mozilla/5.0 (Windows NT 10.0; Win64; x64) AppleWebKit/537.36 (KHTML, like Gecko) Chrome/77.0.3865.90 Safari/537.36
[2019-09-27T11:36:46.674Z] [ip]: ::ffff:127.0.0.1 - [method]: GET [url]: /api/v1/trader/get_cart_trader HTTP/1.1 [status]: 200 [response-time]: 6.289 ms [client]: Mozilla/5.0 (Windows NT 10.0; Win64; x64) AppleWebKit/537.36 (KHTML, like Gecko) Chrome/77.0.3865.90 Safari/537.36
[2019-09-27T11:36:46.680Z] [ip]: ::ffff:127.0.0.1 - [method]: GET [url]: /api/v1/show/show_user HTTP/1.1 [status]: 304 [response-time]: 13.609 ms [client]: Mozilla/5.0 (Windows NT 10.0; Win64; x64) AppleWebKit/537.36 (KHTML, like Gecko) Chrome/77.0.3865.90 Safari/537.36
[2019-09-27T11:36:47.201Z] [ip]: ::ffff:127.0.0.1 - [method]: OPTIONS [url]: /api/v1/trader/get_product HTTP/1.1 [status]: 200 [response-time]: 0.223 ms [client]: Mozilla/5.0 (Windows NT 10.0; Win64; x64) AppleWebKit/537.36 (KHTML, like Gecko) Chrome/77.0.3865.90 Safari/537.36
[2019-09-27T11:36:47.204Z] [ip]: ::ffff:127.0.0.1 - [method]: GET [url]: /api/v1/show/show_user HTTP/1.1 [status]: 304 [response-time]: 1.103 ms [client]: Mozilla/5.0 (Windows NT 10.0; Win64; x64) AppleWebKit/537.36 (KHTML, like Gecko) Chrome/77.0.3865.90 Safari/537.36
[2019-09-27T11:36:47.214Z] [ip]: ::ffff:127.0.0.1 - [method]: GET [url]: /api/v1/trader/get_product HTTP/1.1 [status]: 304 [response-time]: 4.999 ms [client]: Mozilla/5.0 (Windows NT 10.0; Win64; x64) AppleWebKit/537.36 (KHTML, like Gecko) Chrome/77.0.3865.90 Safari/537.36
[2019-09-27T11:36:47.285Z] [ip]: ::ffff:127.0.0.1 - [method]: GET [url]: /api/v1/trader/image/plant_5.png HTTP/1.1 [status]: 304 [response-time]: 1.805 ms [client]: Mozilla/5.0 (Windows NT 10.0; Win64; x64) AppleWebKit/537.36 (KHTML, like Gecko) Chrome/77.0.3865.90 Safari/537.36
[2019-09-27T11:36:47.288Z] [ip]: ::ffff:127.0.0.1 - [method]: GET [url]: /api/v1/trader/image/plant_1.png HTTP/1.1 [status]: 304 [response-time]: 8.356 ms [client]: Mozilla/5.0 (Windows NT 10.0; Win64; x64) AppleWebKit/537.36 (KHTML, like Gecko) Chrome/77.0.3865.90 Safari/537.36
[2019-09-27T11:36:47.289Z] [ip]: ::ffff:127.0.0.1 - [method]: GET [url]: /api/v1/trader/image/plant_4.png HTTP/1.1 [status]: 304 [response-time]: 9.419 ms [client]: Mozilla/5.0 (Windows NT 10.0; Win64; x64) AppleWebKit/537.36 (KHTML, like Gecko) Chrome/77.0.3865.90 Safari/537.36
[2019-09-27T11:36:47.329Z] [ip]: ::ffff:127.0.0.1 - [method]: GET [url]: /api/v1/trader/image/plant_3.png HTTP/1.1 [status]: 304 [response-time]: 49.694 ms [client]: Mozilla/5.0 (Windows NT 10.0; Win64; x64) AppleWebKit/537.36 (KHTML, like Gecko) Chrome/77.0.3865.90 Safari/537.36
[2019-09-27T11:36:47.370Z] [ip]: ::ffff:127.0.0.1 - [method]: GET [url]: /api/v1/trader/image/plant_7.png HTTP/1.1 [status]: 200 [response-time]: 82.340 ms [client]: Mozilla/5.0 (Windows NT 10.0; Win64; x64) AppleWebKit/537.36 (KHTML, like Gecko) Chrome/77.0.3865.90 Safari/537.36
[2019-09-27T11:36:47.490Z] [ip]: ::ffff:127.0.0.1 - [method]: GET [url]: /api/v1/trader/image/plant_10.png HTTP/1.1 [status]: 200 [response-time]: 182.314 ms [client]: Mozilla/5.0 (Windows NT 10.0; Win64; x64) AppleWebKit/537.36 (KHTML, like Gecko) Chrome/77.0.3865.90 Safari/537.36
[2019-09-27T11:36:47.492Z] [ip]: ::ffff:127.0.0.1 - [method]: GET [url]: /api/v1/trader/image/plant_6.png HTTP/1.1 [status]: 200 [response-time]: 208.710 ms [client]: Mozilla/5.0 (Windows NT 10.0; Win64; x64) AppleWebKit/537.36 (KHTML, like Gecko) Chrome/77.0.3865.90 Safari/537.36
[2019-09-27T11:36:47.578Z] [ip]: ::ffff:127.0.0.1 - [method]: GET [url]: /api/v1/trader/image/plant_11.png HTTP/1.1 [status]: 200 [response-time]: 237.700 ms [client]: Mozilla/5.0 (Windows NT 10.0; Win64; x64) AppleWebKit/537.36 (KHTML, like Gecko) Chrome/77.0.3865.90 Safari/537.36
[2019-09-27T11:36:47.600Z] [ip]: ::ffff:127.0.0.1 - [method]: GET [url]: /api/v1/trader/image/plant_14.png HTTP/1.1 [status]: 200 [response-time]: 102.465 ms [client]: Mozilla/5.0 (Windows NT 10.0; Win64; x64) AppleWebKit/537.36 (KHTML, like Gecko) Chrome/77.0.3865.90 Safari/537.36
[2019-09-27T11:36:47.632Z] [ip]: ::ffff:127.0.0.1 - [method]: GET [url]: /api/v1/trader/image/plant_9.png HTTP/1.1 [status]: 200 [response-time]: 337.044 ms [client]: Mozilla/5.0 (Windows NT 10.0; Win64; x64) AppleWebKit/537.36 (KHTML, like Gecko) Chrome/77.0.3865.90 Safari/537.36
[2019-09-27T11:36:47.634Z] [ip]: ::ffff:127.0.0.1 - [method]: GET [url]: /api/v1/trader/image/plant_12.png HTTP/1.1 [status]: 200 [response-time]: 259.026 ms [client]: Mozilla/5.0 (Windows NT 10.0; Win64; x64) AppleWebKit/537.36 (KHTML, like Gecko) Chrome/77.0.3865.90 Safari/537.36
[2019-09-27T11:36:47.704Z] [ip]: ::ffff:127.0.0.1 - [method]: GET [url]: /api/v1/trader/image/plant_15.png HTTP/1.1 [status]: 200 [response-time]: 116.492 ms [client]: Mozilla/5.0 (Windows NT 10.0; Win64; x64) AppleWebKit/537.36 (KHTML, like Gecko) Chrome/77.0.3865.90 Safari/537.36
[2019-09-27T11:36:47.705Z] [ip]: ::ffff:127.0.0.1 - [method]: GET [url]: /api/v1/trader/image/plant_16.png HTTP/1.1 [status]: 200 [response-time]: 102.348 ms [client]: Mozilla/5.0 (Windows NT 10.0; Win64; x64) AppleWebKit/537.36 (KHTML, like Gecko) Chrome/77.0.3865.90 Safari/537.36
[2019-09-27T11:36:47.731Z] [ip]: ::ffff:127.0.0.1 - [method]: GET [url]: /api/v1/trader/image/plant_17.png HTTP/1.1 [status]: 200 [response-time]: 93.553 ms [client]: Mozilla/5.0 (Windows NT 10.0; Win64; x64) AppleWebKit/537.36 (KHTML, like Gecko) Chrome/77.0.3865.90 Safari/537.36
[2019-09-27T11:36:47.751Z] [ip]: ::ffff:127.0.0.1 - [method]: GET [url]: /api/v1/trader/image/plant_13.png HTTP/1.1 [status]: 200 [response-time]: 240.164 ms [client]: Mozilla/5.0 (Windows NT 10.0; Win64; x64) AppleWebKit/537.36 (KHTML, like Gecko) Chrome/77.0.3865.90 Safari/537.36
[2019-09-27T11:36:47.763Z] [ip]: ::ffff:127.0.0.1 - [method]: GET [url]: /api/v1/trader/image/plant_19.png HTTP/1.1 [status]: 200 [response-time]: 49.990 ms [client]: Mozilla/5.0 (Windows NT 10.0; Win64; x64) AppleWebKit/537.36 (KHTML, like Gecko) Chrome/77.0.3865.90 Safari/537.36
[2019-09-27T11:36:47.834Z] [ip]: ::ffff:127.0.0.1 - [method]: GET [url]: /api/v1/trader/image/plant_21.png HTTP/1.1 [status]: 200 [response-time]: 100.114 ms [client]: Mozilla/5.0 (Windows NT 10.0; Win64; x64) AppleWebKit/537.36 (KHTML, like Gecko) Chrome/77.0.3865.90 Safari/537.36
[2019-09-27T11:36:47.836Z] [ip]: ::ffff:127.0.0.1 - [method]: GET [url]: /api/v1/trader/image/plant_22.png HTTP/1.1 [status]: 200 [response-time]: 79.618 ms [client]: Mozilla/5.0 (Windows NT 10.0; Win64; x64) AppleWebKit/537.36 (KHTML, like Gecko) Chrome/77.0.3865.90 Safari/537.36
[2019-09-27T11:36:47.843Z] [ip]: ::ffff:127.0.0.1 - [method]: GET [url]: /api/v1/trader/image/plant_24.png HTTP/1.1 [status]: 200 [response-time]: 77.489 ms [client]: Mozilla/5.0 (Windows NT 10.0; Win64; x64) AppleWebKit/537.36 (KHTML, like Gecko) Chrome/77.0.3865.90 Safari/537.36
[2019-09-27T11:36:47.856Z] [ip]: ::ffff:127.0.0.1 - [method]: GET [url]: /api/v1/trader/image/plant_20.png HTTP/1.1 [status]: 200 [response-time]: 147.064 ms [client]: Mozilla/5.0 (Windows NT 10.0; Win64; x64) AppleWebKit/537.36 (KHTML, like Gecko) Chrome/77.0.3865.90 Safari/537.36
[2019-09-27T11:36:47.858Z] [ip]: ::ffff:127.0.0.1 - [method]: GET [url]: /api/v1/trader/image/plant_8.png HTTP/1.1 [status]: 200 [response-time]: 554.805 ms [client]: Mozilla/5.0 (Windows NT 10.0; Win64; x64) AppleWebKit/537.36 (KHTML, like Gecko) Chrome/77.0.3865.90 Safari/537.36
[2019-09-27T11:36:47.871Z] [ip]: ::ffff:127.0.0.1 - [method]: GET [url]: /api/v1/trader/image/plant_18.png HTTP/1.1 [status]: 200 [response-time]: 223.622 ms [client]: Mozilla/5.0 (Windows NT 10.0; Win64; x64) AppleWebKit/537.36 (KHTML, like Gecko) Chrome/77.0.3865.90 Safari/537.36
[2019-09-27T11:36:47.876Z] [ip]: ::ffff:127.0.0.1 - [method]: GET [url]: /api/v1/trader/image/plant_25.png HTTP/1.1 [status]: 200 [response-time]: 36.075 ms [client]: Mozilla/5.0 (Windows NT 10.0; Win64; x64) AppleWebKit/537.36 (KHTML, like Gecko) Chrome/77.0.3865.90 Safari/537.36
[2019-09-27T11:36:47.897Z] [ip]: ::ffff:127.0.0.1 - [method]: GET [url]: /api/v1/trader/image/plant_26.png HTTP/1.1 [status]: 200 [response-time]: 55.159 ms [client]: Mozilla/5.0 (Windows NT 10.0; Win64; x64) AppleWebKit/537.36 (KHTML, like Gecko) Chrome/77.0.3865.90 Safari/537.36
[2019-09-27T11:36:49.936Z] [ip]: ::ffff:127.0.0.1 - [method]: OPTIONS [url]: /api/v1/neutrally/get_order_all HTTP/1.1 [status]: 200 [response-time]: 0.314 ms [client]: Mozilla/5.0 (Windows NT 10.0; Win64; x64) AppleWebKit/537.36 (KHTML, like Gecko) Chrome/77.0.3865.90 Safari/537.36
[2019-09-27T11:36:49.952Z] [ip]: ::ffff:127.0.0.1 - [method]: GET [url]: /api/v1/neutrally/get_order_all HTTP/1.1 [status]: 304 [response-time]: 3.152 ms [client]: Mozilla/5.0 (Windows NT 10.0; Win64; x64) AppleWebKit/537.36 (KHTML, like Gecko) Chrome/77.0.3865.90 Safari/537.36
[2019-09-27T11:36:51.624Z] [ip]: ::ffff:127.0.0.1 - [method]: GET [url]: /api/v1/trader/get_product HTTP/1.1 [status]: 304 [response-time]: 4.002 ms [client]: Mozilla/5.0 (Windows NT 10.0; Win64; x64) AppleWebKit/537.36 (KHTML, like Gecko) Chrome/77.0.3865.90 Safari/537.36
[2019-09-27T11:36:52.601Z] [ip]: ::ffff:127.0.0.1 - [method]: OPTIONS [url]: /api/v1/neutrally/get_order_se_all HTTP/1.1 [status]: 200 [response-time]: 0.178 ms [client]: Mozilla/5.0 (Windows NT 10.0; Win64; x64) AppleWebKit/537.36 (KHTML, like Gecko) Chrome/77.0.3865.90 Safari/537.36
[2019-09-27T11:36:52.606Z] [ip]: ::ffff:127.0.0.1 - [method]: OPTIONS [url]: /api/v1/show/show_user HTTP/1.1 [status]: 200 [response-time]: 0.147 ms [client]: Mozilla/5.0 (Windows NT 10.0; Win64; x64) AppleWebKit/537.36 (KHTML, like Gecko) Chrome/77.0.3865.90 Safari/537.36
[2019-09-27T11:36:52.612Z] [ip]: ::ffff:127.0.0.1 - [method]: GET [url]: /api/v1/neutrally/get_order_se_all HTTP/1.1 [status]: 304 [response-time]: 2.172 ms [client]: Mozilla/5.0 (Windows NT 10.0; Win64; x64) AppleWebKit/537.36 (KHTML, like Gecko) Chrome/77.0.3865.90 Safari/537.36
[2019-09-27T11:36:52.613Z] [ip]: ::ffff:127.0.0.1 - [method]: GET [url]: /api/v1/show/show_user HTTP/1.1 [status]: 304 [response-time]: 5.560 ms [client]: Mozilla/5.0 (Windows NT 10.0; Win64; x64) AppleWebKit/537.36 (KHTML, like Gecko) Chrome/77.0.3865.90 Safari/537.36
[2019-09-27T11:36:53.772Z] [ip]: ::ffff:127.0.0.1 - [method]: GET [url]: /api/v1/neutrally/get_order_all HTTP/1.1 [status]: 304 [response-time]: 2.735 ms [client]: Mozilla/5.0 (Windows NT 10.0; Win64; x64) AppleWebKit/537.36 (KHTML, like Gecko) Chrome/77.0.3865.90 Safari/537.36
[2019-09-27T11:36:54.227Z] [ip]: ::ffff:127.0.0.1 - [method]: GET [url]: /api/v1/neutrally/get_order_se_all HTTP/1.1 [status]: 304 [response-time]: 1.101 ms [client]: Mozilla/5.0 (Windows NT 10.0; Win64; x64) AppleWebKit/537.36 (KHTML, like Gecko) Chrome/77.0.3865.90 Safari/537.36
[2019-09-27T11:36:54.231Z] [ip]: ::ffff:127.0.0.1 - [method]: GET [url]: /api/v1/show/show_user HTTP/1.1 [status]: 304 [response-time]: 2.728 ms [client]: Mozilla/5.0 (Windows NT 10.0; Win64; x64) AppleWebKit/537.36 (KHTML, like Gecko) Chrome/77.0.3865.90 Safari/537.36
